-- Merging decision tree log ---
manifest
ADDED from /Users/apple/Downloads/freelance2/laybull/android/app/src/main/AndroidManifest.xml:1:1-59:12
INJECTED from /Users/apple/Downloads/freelance2/laybull/android/app/src/main/AndroidManifest.xml:1:1-59:12
INJECTED from /Users/apple/Downloads/freelance2/laybull/android/app/src/main/AndroidManifest.xml:1:1-59:12
INJECTED from /Users/apple/Downloads/freelance2/laybull/android/app/src/main/AndroidManifest.xml:1:1-59:12
MERGED from /Users/apple/Downloads/freelance2/laybull/android/app/src/main/AndroidManifest.xml:1:1-59:12
MERGED from [:flutter_image_compress] /Users/apple/Downloads/freelance2/laybull/build/flutter_image_compress/intermediates/library_manifest/debug/AndroidManifest.xml:2:1-11:12
MERGED from [:fluttertoast] /Users/apple/Downloads/freelance2/laybull/build/fluttertoast/intermediates/library_manifest/debug/AndroidManifest.xml:2:1-7:12
MERGED from [:image_picker] /Users/apple/Downloads/freelance2/laybull/build/image_picker/intermediates/library_manifest/debug/AndroidManifest.xml:2:1-22:12
MERGED from [:flutter_plugin_android_lifecycle] /Users/apple/Downloads/freelance2/laybull/build/flutter_plugin_android_lifecycle/intermediates/library_manifest/debug/AndroidManifest.xml:2:1-7:12
MERGED from [:firebase_messaging] /Users/apple/Downloads/freelance2/laybull/build/firebase_messaging/intermediates/library_manifest/debug/AndroidManifest.xml:2:1-46:12
MERGED from [:url_launcher] /Users/apple/Downloads/freelance2/laybull/build/url_launcher/intermediates/library_manifest/debug/AndroidManifest.xml:2:1-14:12
MERGED from [:path_provider] /Users/apple/Downloads/freelance2/laybull/build/path_provider/intermediates/library_manifest/debug/AndroidManifest.xml:2:1-7:12
MERGED from [:flutter_local_notifications] /Users/apple/Downloads/freelance2/laybull/build/flutter_local_notifications/intermediates/library_manifest/debug/AndroidManifest.xml:2:1-23:12
MERGED from [:shared_preferences] /Users/apple/Downloads/freelance2/laybull/build/shared_preferences/intermediates/library_manifest/debug/AndroidManifest.xml:2:1-7:12
MERGED from [:firebase_core] /Users/apple/Downloads/freelance2/laybull/build/firebase_core/intermediates/library_manifest/debug/AndroidManifest.xml:2:1-15:12
MERGED from [com.google.firebase:firebase-analytics-ktx:19.0.0] /Users/apple/.gradle/caches/transforms-2/files-2.1/4bcb633e23b2302360ea7d152c18ee70/firebase-analytics-ktx-19.0.0/AndroidManifest.xml:2:1-17:12
MERGED from [com.google.firebase:firebase-common-ktx:20.0.0] /Users/apple/.gradle/caches/transforms-2/files-2.1/d7c50ad9b2ee41722f7fbcb340b1c212/firebase-common-ktx-20.0.0/AndroidManifest.xml:2:1-21:12
MERGED from [androidx.exifinterface:exifinterface:1.1.0] /Users/apple/.gradle/caches/transforms-2/files-2.1/cb3eb7738540f78bbe8aae27ec61804e/exifinterface-1.1.0/AndroidManifest.xml:17:1-24:12
MERGED from [androidx.heifwriter:heifwriter:1.0.0] /Users/apple/.gradle/caches/transforms-2/files-2.1/f1da8f34dbfbfdd82327e8e00dfa9e19/heifwriter-1.0.0/AndroidManifest.xml:17:1-22:12
MERGED from [com.google.firebase:firebase-messaging:22.0.0] /Users/apple/.gradle/caches/transforms-2/files-2.1/023c9c8afbaf30c41adace25eca7bde6/jetified-firebase-messaging-22.0.0/AndroidManifest.xml:17:1-58:12
MERGED from [com.google.firebase:firebase-analytics:19.0.0] /Users/apple/.gradle/caches/transforms-2/files-2.1/30818c144f89f48ee570709b0a269727/firebase-analytics-19.0.0/AndroidManifest.xml:2:1-9:12
MERGED from [com.google.android.gms:play-services-measurement:19.0.0] /Users/apple/.gradle/caches/transforms-2/files-2.1/ae09a87ceb17057461dab98275b2323f/play-services-measurement-19.0.0/AndroidManifest.xml:17:1-46:12
MERGED from [com.google.android.gms:play-services-measurement-sdk:19.0.0] /Users/apple/.gradle/caches/transforms-2/files-2.1/fee60ed802458aad509f43e381d95646/play-services-measurement-sdk-19.0.0/AndroidManifest.xml:17:1-25:12
MERGED from [com.google.android.gms:play-services-measurement-impl:19.0.0] /Users/apple/.gradle/caches/transforms-2/files-2.1/995175598b3bc8c69ec08cc51a6479de/play-services-measurement-impl-19.0.0/AndroidManifest.xml:17:1-31:12
MERGED from [com.google.android.gms:play-services-stats:17.0.0] /Users/apple/.gradle/caches/transforms-2/files-2.1/49b597d53a7a16a0f95eebf457e4d7a1/play-services-stats-17.0.0/AndroidManifest.xml:2:1-9:12
MERGED from [androidx.legacy:legacy-support-core-utils:1.0.0] /Users/apple/.gradle/caches/transforms-2/files-2.1/430a25e9ce75acf2aaab3ffc8abd59e4/legacy-support-core-utils-1.0.0/AndroidManifest.xml:17:1-22:12
MERGED from [androidx.localbroadcastmanager:localbroadcastmanager:1.0.0] /Users/apple/.gradle/caches/transforms-2/files-2.1/8c9586cd05c6f6e8bcc098c4069f871f/localbroadcastmanager-1.0.0/AndroidManifest.xml:17:1-22:12
MERGED from [androidx.media:media:1.1.0] /Users/apple/.gradle/caches/transforms-2/files-2.1/7b69d63459b6298517d96a9ba18f4500/media-1.1.0/AndroidManifest.xml:17:1-24:12
MERGED from [com.google.firebase:firebase-datatransport:18.0.0] /Users/apple/.gradle/caches/transforms-2/files-2.1/7fde8af00e3fcdab8e20440bbb906c69/firebase-datatransport-18.0.0/AndroidManifest.xml:15:1-34:12
MERGED from [com.google.android.gms:play-services-measurement-api:19.0.0] /Users/apple/.gradle/caches/transforms-2/files-2.1/6283c31df1a5ff5b5adf31d5b2c18d0b/play-services-measurement-api-19.0.0/AndroidManifest.xml:17:1-36:12
MERGED from [com.google.firebase:firebase-installations:17.0.0] /Users/apple/.gradle/caches/transforms-2/files-2.1/5a84543ef7ffe5ea13f86bfa99578d82/firebase-installations-17.0.0/AndroidManifest.xml:2:1-24:12
MERGED from [com.google.firebase:firebase-common:20.0.0] /Users/apple/.gradle/caches/transforms-2/files-2.1/48d27c24c69d71f8a23bd6bf4b8a3170/jetified-firebase-common-20.0.0/AndroidManifest.xml:15:1-40:12
MERGED from [com.google.android.gms:play-services-cloud-messaging:16.0.0] /Users/apple/.gradle/caches/transforms-2/files-2.1/f4a0d351c388375dfc747d864225d593/play-services-cloud-messaging-16.0.0/AndroidManifest.xml:2:1-13:12
MERGED from [com.google.firebase:firebase-iid-interop:17.1.0] /Users/apple/.gradle/caches/transforms-2/files-2.1/8efc8e30cf5b6e44c06bd6104d06d79a/firebase-iid-interop-17.1.0/AndroidManifest.xml:2:1-10:12
MERGED from [com.google.firebase:firebase-installations-interop:17.0.0] /Users/apple/.gradle/caches/transforms-2/files-2.1/c8b2424fcc4e78cb8ab75fb1c3a6e1a6/firebase-installations-interop-17.0.0/AndroidManifest.xml:15:1-23:12
MERGED from [com.google.android.gms:play-services-tasks:17.0.0] /Users/apple/.gradle/caches/transforms-2/files-2.1/efe426f7d3cec649557d6c7c729de5a4/play-services-tasks-17.0.0/AndroidManifest.xml:2:1-9:12
MERGED from [com.google.firebase:firebase-measurement-connector:19.0.0] /Users/apple/.gradle/caches/transforms-2/files-2.1/0f31d8ecd756c2195819cb08d0cb111e/firebase-measurement-connector-19.0.0/AndroidManifest.xml:17:1-25:12
MERGED from [com.google.android.gms:play-services-ads-identifier:17.0.0] /Users/apple/.gradle/caches/transforms-2/files-2.1/a576b31cd7f781350aadd1c5723fafe8/play-services-ads-identifier-17.0.0/AndroidManifest.xml:17:1-24:12
MERGED from [com.google.android.gms:play-services-measurement-sdk-api:19.0.0] /Users/apple/.gradle/caches/transforms-2/files-2.1/45f3290cd9215ef94cff8324ea4a69ed/play-services-measurement-sdk-api-19.0.0/AndroidManifest.xml:17:1-27:12
MERGED from [com.google.android.gms:play-services-measurement-base:19.0.0] /Users/apple/.gradle/caches/transforms-2/files-2.1/8fdc0287affe02a1af4a4c0949d1f8c3/play-services-measurement-base-19.0.0/AndroidManifest.xml:2:1-9:12
MERGED from [com.google.android.gms:play-services-basement:17.0.0] /Users/apple/.gradle/caches/transforms-2/files-2.1/c2c4012586a32b1624464106a1ba071a/jetified-play-services-basement-17.0.0/AndroidManifest.xml:17:1-28:12
MERGED from [androidx.fragment:fragment:1.1.0] /Users/apple/.gradle/caches/transforms-2/files-2.1/df21e69f08184007578c22065511d3e3/fragment-1.1.0/AndroidManifest.xml:17:1-24:12
MERGED from [androidx.viewpager:viewpager:1.0.0] /Users/apple/.gradle/caches/transforms-2/files-2.1/fc66baf75c90ce429d24ec04d437c235/viewpager-1.0.0/AndroidManifest.xml:17:1-22:12
MERGED from [androidx.loader:loader:1.0.0] /Users/apple/.gradle/caches/transforms-2/files-2.1/78e0a0a088de3f997bf7a754d5e7b08c/loader-1.0.0/AndroidManifest.xml:17:1-22:12
MERGED from [androidx.activity:activity:1.0.0] /Users/apple/.gradle/caches/transforms-2/files-2.1/6b15249d931586d1d19b724df864b389/activity-1.0.0/AndroidManifest.xml:17:1-24:12
MERGED from [androidx.customview:customview:1.0.0] /Users/apple/.gradle/caches/transforms-2/files-2.1/5dbd1957980065fa0d02635b580951a2/customview-1.0.0/AndroidManifest.xml:17:1-22:12
MERGED from [androidx.core:core:1.3.0] /Users/apple/.gradle/caches/transforms-2/files-2.1/8099c5287629f36806dd5b8b8d110cdf/core-1.3.0/AndroidManifest.xml:17:1-26:12
MERGED from [androidx.lifecycle:lifecycle-runtime:2.2.0] /Users/apple/.gradle/caches/transforms-2/files-2.1/8bd15a56d6b3f2200bd43592357a15d6/lifecycle-runtime-2.2.0/AndroidManifest.xml:17:1-24:12
MERGED from [androidx.savedstate:savedstate:1.0.0] /Users/apple/.gradle/caches/transforms-2/files-2.1/ae936fceae16a6df2cf48186c2766310/savedstate-1.0.0/AndroidManifest.xml:17:1-24:12
MERGED from [androidx.lifecycle:lifecycle-livedata:2.0.0] /Users/apple/.gradle/caches/transforms-2/files-2.1/708e6dabb13c3a46e8ec454b15b51bc6/lifecycle-livedata-2.0.0/AndroidManifest.xml:17:1-22:12
MERGED from [androidx.lifecycle:lifecycle-livedata-core:2.0.0] /Users/apple/.gradle/caches/transforms-2/files-2.1/f78e0789a64f50bf539e58984f9469aa/lifecycle-livedata-core-2.0.0/AndroidManifest.xml:17:1-22:12
MERGED from [androidx.versionedparcelable:versionedparcelable:1.1.0] /Users/apple/.gradle/caches/transforms-2/files-2.1/ff330ad14ee43967414cba59d0f59077/versionedparcelable-1.1.0/AndroidManifest.xml:17:1-27:12
MERGED from [com.google.firebase:firebase-components:17.0.0] /Users/apple/.gradle/caches/transforms-2/files-2.1/85ff51e09773ab99d4bfdb41a3f13a7b/jetified-firebase-components-17.0.0/AndroidManifest.xml:15:1-23:12
MERGED from [com.google.android.datatransport:transport-backend-cct:3.0.0] /Users/apple/.gradle/caches/transforms-2/files-2.1/bf67f8fa37479c4168b99c112dd28cc2/jetified-transport-backend-cct-3.0.0/AndroidManifest.xml:15:1-38:12
MERGED from [com.google.android.datatransport:transport-runtime:3.0.0] /Users/apple/.gradle/caches/transforms-2/files-2.1/d47444b005bf9c7751eb4a19f21ee215/jetified-transport-runtime-3.0.0/AndroidManifest.xml:15:1-41:12
MERGED from [com.google.android.datatransport:transport-api:3.0.0] /Users/apple/.gradle/caches/transforms-2/files-2.1/94f57aa78094933d775e804700d01dae/jetified-transport-api-3.0.0/AndroidManifest.xml:15:1-22:12
MERGED from [androidx.arch.core:core-runtime:2.0.0] /Users/apple/.gradle/caches/transforms-2/files-2.1/7e51c8c41e5c39fa50436579f99c2aa2/core-runtime-2.0.0/AndroidManifest.xml:17:1-22:12
MERGED from [com.google.firebase:firebase-encoders-json:18.0.0] /Users/apple/.gradle/caches/transforms-2/files-2.1/447f1a816da13d05b1bcee2861eb5b6c/firebase-encoders-json-18.0.0/AndroidManifest.xml:15:1-23:12
MERGED from [androidx.lifecycle:lifecycle-viewmodel:2.1.0] /Users/apple/.gradle/caches/transforms-2/files-2.1/ea67db9fbc919441507abec4d12afc59/lifecycle-viewmodel-2.1.0/AndroidManifest.xml:17:1-22:12
MERGED from [androidx.documentfile:documentfile:1.0.0] /Users/apple/.gradle/caches/transforms-2/files-2.1/d25e6b0b5bd88eea6b64db66fff4ffa2/documentfile-1.0.0/AndroidManifest.xml:17:1-22:12
MERGED from [androidx.print:print:1.0.0] /Users/apple/.gradle/caches/transforms-2/files-2.1/6dad1988f89bd0b26bb54813d4dca87e/print-1.0.0/AndroidManifest.xml:17:1-22:12
MERGED from [com.jakewharton.threetenabp:threetenabp:1.2.3] /Users/apple/.gradle/caches/transforms-2/files-2.1/ea4590e4e95b2b9b2c682834dc387089/threetenabp-1.2.3/AndroidManifest.xml:2:1-9:12
INJECTED from /Users/apple/Downloads/freelance2/laybull/android/app/src/debug/AndroidManifest.xml:1:1-7:12
INJECTED from /Users/apple/Downloads/freelance2/laybull/android/app/src/debug/AndroidManifest.xml:1:1-7:12
INJECTED from /Users/apple/Downloads/freelance2/laybull/android/app/src/debug/AndroidManifest.xml:1:1-7:12
	package
		ADDED from /Users/apple/Downloads/freelance2/laybull/android/app/src/main/AndroidManifest.xml:2:5-43
		INJECTED from /Users/apple/Downloads/freelance2/laybull/android/app/src/main/AndroidManifest.xml
		INJECTED from /Users/apple/Downloads/freelance2/laybull/android/app/src/debug/AndroidManifest.xml
	android:versionName
		INJECTED from /Users/apple/Downloads/freelance2/laybull/android/app/src/main/AndroidManifest.xml
		ADDED from /Users/apple/Downloads/freelance2/laybull/android/app/src/main/AndroidManifest.xml:1:1-59:12
		INJECTED from /Users/apple/Downloads/freelance2/laybull/android/app/src/debug/AndroidManifest.xml
	android:versionCode
		INJECTED from /Users/apple/Downloads/freelance2/laybull/android/app/src/main/AndroidManifest.xml
		ADDED from /Users/apple/Downloads/freelance2/laybull/android/app/src/main/AndroidManifest.xml:1:1-59:12
		INJECTED from /Users/apple/Downloads/freelance2/laybull/android/app/src/debug/AndroidManifest.xml
	xmlns:android
		ADDED from /Users/apple/Downloads/freelance2/laybull/android/app/src/main/AndroidManifest.xml:1:11-69
uses-permission#android.permission.INTERNET
ADDED from /Users/apple/Downloads/freelance2/laybull/android/app/src/main/AndroidManifest.xml:8:5-66
MERGED from /Users/apple/Downloads/freelance2/laybull/android/app/src/main/AndroidManifest.xml:8:5-66
MERGED from /Users/apple/Downloads/freelance2/laybull/android/app/src/main/AndroidManifest.xml:8:5-66
MERGED from [:firebase_messaging] /Users/apple/Downloads/freelance2/laybull/build/firebase_messaging/intermediates/library_manifest/debug/AndroidManifest.xml:7:5-67
MERGED from [:firebase_messaging] /Users/apple/Downloads/freelance2/laybull/build/firebase_messaging/intermediates/library_manifest/debug/AndroidManifest.xml:7:5-67
MERGED from [com.google.android.gms:play-services-measurement:19.0.0] /Users/apple/.gradle/caches/transforms-2/files-2.1/ae09a87ceb17057461dab98275b2323f/play-services-measurement-19.0.0/AndroidManifest.xml:23:5-67
MERGED from [com.google.android.gms:play-services-measurement:19.0.0] /Users/apple/.gradle/caches/transforms-2/files-2.1/ae09a87ceb17057461dab98275b2323f/play-services-measurement-19.0.0/AndroidManifest.xml:23:5-67
MERGED from [com.google.android.gms:play-services-measurement-impl:19.0.0] /Users/apple/.gradle/caches/transforms-2/files-2.1/995175598b3bc8c69ec08cc51a6479de/play-services-measurement-impl-19.0.0/AndroidManifest.xml:23:5-67
MERGED from [com.google.android.gms:play-services-measurement-impl:19.0.0] /Users/apple/.gradle/caches/transforms-2/files-2.1/995175598b3bc8c69ec08cc51a6479de/play-services-measurement-impl-19.0.0/AndroidManifest.xml:23:5-67
MERGED from [com.google.android.gms:play-services-measurement-api:19.0.0] /Users/apple/.gradle/caches/transforms-2/files-2.1/6283c31df1a5ff5b5adf31d5b2c18d0b/play-services-measurement-api-19.0.0/AndroidManifest.xml:22:5-67
MERGED from [com.google.android.gms:play-services-measurement-api:19.0.0] /Users/apple/.gradle/caches/transforms-2/files-2.1/6283c31df1a5ff5b5adf31d5b2c18d0b/play-services-measurement-api-19.0.0/AndroidManifest.xml:22:5-67
MERGED from [com.google.firebase:firebase-installations:17.0.0] /Users/apple/.gradle/caches/transforms-2/files-2.1/5a84543ef7ffe5ea13f86bfa99578d82/firebase-installations-17.0.0/AndroidManifest.xml:11:5-67
MERGED from [com.google.firebase:firebase-installations:17.0.0] /Users/apple/.gradle/caches/transforms-2/files-2.1/5a84543ef7ffe5ea13f86bfa99578d82/firebase-installations-17.0.0/AndroidManifest.xml:11:5-67
MERGED from [com.google.android.gms:play-services-cloud-messaging:16.0.0] /Users/apple/.gradle/caches/transforms-2/files-2.1/f4a0d351c388375dfc747d864225d593/play-services-cloud-messaging-16.0.0/AndroidManifest.xml:8:5-67
MERGED from [com.google.android.gms:play-services-cloud-messaging:16.0.0] /Users/apple/.gradle/caches/transforms-2/files-2.1/f4a0d351c388375dfc747d864225d593/play-services-cloud-messaging-16.0.0/AndroidManifest.xml:8:5-67
MERGED from [com.google.android.gms:play-services-measurement-sdk-api:19.0.0] /Users/apple/.gradle/caches/transforms-2/files-2.1/45f3290cd9215ef94cff8324ea4a69ed/play-services-measurement-sdk-api-19.0.0/AndroidManifest.xml:23:5-67
MERGED from [com.google.android.gms:play-services-measurement-sdk-api:19.0.0] /Users/apple/.gradle/caches/transforms-2/files-2.1/45f3290cd9215ef94cff8324ea4a69ed/play-services-measurement-sdk-api-19.0.0/AndroidManifest.xml:23:5-67
MERGED from [com.google.android.datatransport:transport-backend-cct:3.0.0] /Users/apple/.gradle/caches/transforms-2/files-2.1/bf67f8fa37479c4168b99c112dd28cc2/jetified-transport-backend-cct-3.0.0/AndroidManifest.xml:26:5-67
MERGED from [com.google.android.datatransport:transport-backend-cct:3.0.0] /Users/apple/.gradle/caches/transforms-2/files-2.1/bf67f8fa37479c4168b99c112dd28cc2/jetified-transport-backend-cct-3.0.0/AndroidManifest.xml:26:5-67
	android:name
		ADDED from /Users/apple/Downloads/freelance2/laybull/android/app/src/main/AndroidManifest.xml:8:22-64
application
ADDED from /Users/apple/Downloads/freelance2/laybull/android/app/src/main/AndroidManifest.xml:9:5-58:19
MERGED from [:image_picker] /Users/apple/Downloads/freelance2/laybull/build/image_picker/intermediates/library_manifest/debug/AndroidManifest.xml:10:5-20:19
MERGED from [:image_picker] /Users/apple/Downloads/freelance2/laybull/build/image_picker/intermediates/library_manifest/debug/AndroidManifest.xml:10:5-20:19
MERGED from [:firebase_messaging] /Users/apple/Downloads/freelance2/laybull/build/firebase_messaging/intermediates/library_manifest/debug/AndroidManifest.xml:11:5-44:19
MERGED from [:firebase_messaging] /Users/apple/Downloads/freelance2/laybull/build/firebase_messaging/intermediates/library_manifest/debug/AndroidManifest.xml:11:5-44:19
MERGED from [:url_launcher] /Users/apple/Downloads/freelance2/laybull/build/url_launcher/intermediates/library_manifest/debug/AndroidManifest.xml:7:5-12:19
MERGED from [:url_launcher] /Users/apple/Downloads/freelance2/laybull/build/url_launcher/intermediates/library_manifest/debug/AndroidManifest.xml:7:5-12:19
MERGED from [:flutter_local_notifications] /Users/apple/Downloads/freelance2/laybull/build/flutter_local_notifications/intermediates/library_manifest/debug/AndroidManifest.xml:11:5-21:19
MERGED from [:flutter_local_notifications] /Users/apple/Downloads/freelance2/laybull/build/flutter_local_notifications/intermediates/library_manifest/debug/AndroidManifest.xml:11:5-21:19
MERGED from [:firebase_core] /Users/apple/Downloads/freelance2/laybull/build/firebase_core/intermediates/library_manifest/debug/AndroidManifest.xml:7:5-13:19
MERGED from [:firebase_core] /Users/apple/Downloads/freelance2/laybull/build/firebase_core/intermediates/library_manifest/debug/AndroidManifest.xml:7:5-13:19
MERGED from [com.google.firebase:firebase-analytics-ktx:19.0.0] /Users/apple/.gradle/caches/transforms-2/files-2.1/4bcb633e23b2302360ea7d152c18ee70/firebase-analytics-ktx-19.0.0/AndroidManifest.xml:7:5-15:19
MERGED from [com.google.firebase:firebase-analytics-ktx:19.0.0] /Users/apple/.gradle/caches/transforms-2/files-2.1/4bcb633e23b2302360ea7d152c18ee70/firebase-analytics-ktx-19.0.0/AndroidManifest.xml:7:5-15:19
MERGED from [com.google.firebase:firebase-common-ktx:20.0.0] /Users/apple/.gradle/caches/transforms-2/files-2.1/d7c50ad9b2ee41722f7fbcb340b1c212/firebase-common-ktx-20.0.0/AndroidManifest.xml:11:5-19:19
MERGED from [com.google.firebase:firebase-common-ktx:20.0.0] /Users/apple/.gradle/caches/transforms-2/files-2.1/d7c50ad9b2ee41722f7fbcb340b1c212/firebase-common-ktx-20.0.0/AndroidManifest.xml:11:5-19:19
MERGED from [com.google.firebase:firebase-messaging:22.0.0] /Users/apple/.gradle/caches/transforms-2/files-2.1/023c9c8afbaf30c41adace25eca7bde6/jetified-firebase-messaging-22.0.0/AndroidManifest.xml:27:5-56:19
MERGED from [com.google.firebase:firebase-messaging:22.0.0] /Users/apple/.gradle/caches/transforms-2/files-2.1/023c9c8afbaf30c41adace25eca7bde6/jetified-firebase-messaging-22.0.0/AndroidManifest.xml:27:5-56:19
MERGED from [com.google.firebase:firebase-analytics:19.0.0] /Users/apple/.gradle/caches/transforms-2/files-2.1/30818c144f89f48ee570709b0a269727/firebase-analytics-19.0.0/AndroidManifest.xml:7:5-20
MERGED from [com.google.firebase:firebase-analytics:19.0.0] /Users/apple/.gradle/caches/transforms-2/files-2.1/30818c144f89f48ee570709b0a269727/firebase-analytics-19.0.0/AndroidManifest.xml:7:5-20
MERGED from [com.google.android.gms:play-services-measurement:19.0.0] /Users/apple/.gradle/caches/transforms-2/files-2.1/ae09a87ceb17057461dab98275b2323f/play-services-measurement-19.0.0/AndroidManifest.xml:28:5-44:19
MERGED from [com.google.android.gms:play-services-measurement:19.0.0] /Users/apple/.gradle/caches/transforms-2/files-2.1/ae09a87ceb17057461dab98275b2323f/play-services-measurement-19.0.0/AndroidManifest.xml:28:5-44:19
MERGED from [com.google.android.gms:play-services-measurement-sdk:19.0.0] /Users/apple/.gradle/caches/transforms-2/files-2.1/fee60ed802458aad509f43e381d95646/play-services-measurement-sdk-19.0.0/AndroidManifest.xml:22:5-23:19
MERGED from [com.google.android.gms:play-services-measurement-sdk:19.0.0] /Users/apple/.gradle/caches/transforms-2/files-2.1/fee60ed802458aad509f43e381d95646/play-services-measurement-sdk-19.0.0/AndroidManifest.xml:22:5-23:19
MERGED from [com.google.android.gms:play-services-measurement-impl:19.0.0] /Users/apple/.gradle/caches/transforms-2/files-2.1/995175598b3bc8c69ec08cc51a6479de/play-services-measurement-impl-19.0.0/AndroidManifest.xml:28:5-29:19
MERGED from [com.google.android.gms:play-services-measurement-impl:19.0.0] /Users/apple/.gradle/caches/transforms-2/files-2.1/995175598b3bc8c69ec08cc51a6479de/play-services-measurement-impl-19.0.0/AndroidManifest.xml:28:5-29:19
MERGED from [com.google.android.gms:play-services-stats:17.0.0] /Users/apple/.gradle/caches/transforms-2/files-2.1/49b597d53a7a16a0f95eebf457e4d7a1/play-services-stats-17.0.0/AndroidManifest.xml:7:5-20
MERGED from [com.google.android.gms:play-services-stats:17.0.0] /Users/apple/.gradle/caches/transforms-2/files-2.1/49b597d53a7a16a0f95eebf457e4d7a1/play-services-stats-17.0.0/AndroidManifest.xml:7:5-20
MERGED from [com.google.firebase:firebase-datatransport:18.0.0] /Users/apple/.gradle/caches/transforms-2/files-2.1/7fde8af00e3fcdab8e20440bbb906c69/firebase-datatransport-18.0.0/AndroidManifest.xml:24:5-32:19
MERGED from [com.google.firebase:firebase-datatransport:18.0.0] /Users/apple/.gradle/caches/transforms-2/files-2.1/7fde8af00e3fcdab8e20440bbb906c69/firebase-datatransport-18.0.0/AndroidManifest.xml:24:5-32:19
MERGED from [com.google.android.gms:play-services-measurement-api:19.0.0] /Users/apple/.gradle/caches/transforms-2/files-2.1/6283c31df1a5ff5b5adf31d5b2c18d0b/play-services-measurement-api-19.0.0/AndroidManifest.xml:26:5-34:19
MERGED from [com.google.android.gms:play-services-measurement-api:19.0.0] /Users/apple/.gradle/caches/transforms-2/files-2.1/6283c31df1a5ff5b5adf31d5b2c18d0b/play-services-measurement-api-19.0.0/AndroidManifest.xml:26:5-34:19
MERGED from [com.google.firebase:firebase-installations:17.0.0] /Users/apple/.gradle/caches/transforms-2/files-2.1/5a84543ef7ffe5ea13f86bfa99578d82/firebase-installations-17.0.0/AndroidManifest.xml:14:5-22:19
MERGED from [com.google.firebase:firebase-installations:17.0.0] /Users/apple/.gradle/caches/transforms-2/files-2.1/5a84543ef7ffe5ea13f86bfa99578d82/firebase-installations-17.0.0/AndroidManifest.xml:14:5-22:19
MERGED from [com.google.firebase:firebase-common:20.0.0] /Users/apple/.gradle/caches/transforms-2/files-2.1/48d27c24c69d71f8a23bd6bf4b8a3170/jetified-firebase-common-20.0.0/AndroidManifest.xml:25:5-38:19
MERGED from [com.google.firebase:firebase-common:20.0.0] /Users/apple/.gradle/caches/transforms-2/files-2.1/48d27c24c69d71f8a23bd6bf4b8a3170/jetified-firebase-common-20.0.0/AndroidManifest.xml:25:5-38:19
MERGED from [com.google.firebase:firebase-iid-interop:17.1.0] /Users/apple/.gradle/caches/transforms-2/files-2.1/8efc8e30cf5b6e44c06bd6104d06d79a/firebase-iid-interop-17.1.0/AndroidManifest.xml:7:5-8:19
MERGED from [com.google.firebase:firebase-iid-interop:17.1.0] /Users/apple/.gradle/caches/transforms-2/files-2.1/8efc8e30cf5b6e44c06bd6104d06d79a/firebase-iid-interop-17.1.0/AndroidManifest.xml:7:5-8:19
MERGED from [com.google.android.gms:play-services-tasks:17.0.0] /Users/apple/.gradle/caches/transforms-2/files-2.1/efe426f7d3cec649557d6c7c729de5a4/play-services-tasks-17.0.0/AndroidManifest.xml:7:5-20
MERGED from [com.google.android.gms:play-services-tasks:17.0.0] /Users/apple/.gradle/caches/transforms-2/files-2.1/efe426f7d3cec649557d6c7c729de5a4/play-services-tasks-17.0.0/AndroidManifest.xml:7:5-20
MERGED from [com.google.firebase:firebase-measurement-connector:19.0.0] /Users/apple/.gradle/caches/transforms-2/files-2.1/0f31d8ecd756c2195819cb08d0cb111e/firebase-measurement-connector-19.0.0/AndroidManifest.xml:22:5-23:19
MERGED from [com.google.firebase:firebase-measurement-connector:19.0.0] /Users/apple/.gradle/caches/transforms-2/files-2.1/0f31d8ecd756c2195819cb08d0cb111e/firebase-measurement-connector-19.0.0/AndroidManifest.xml:22:5-23:19
MERGED from [com.google.android.gms:play-services-ads-identifier:17.0.0] /Users/apple/.gradle/caches/transforms-2/files-2.1/a576b31cd7f781350aadd1c5723fafe8/play-services-ads-identifier-17.0.0/AndroidManifest.xml:22:5-20
MERGED from [com.google.android.gms:play-services-ads-identifier:17.0.0] /Users/apple/.gradle/caches/transforms-2/files-2.1/a576b31cd7f781350aadd1c5723fafe8/play-services-ads-identifier-17.0.0/AndroidManifest.xml:22:5-20
MERGED from [com.google.android.gms:play-services-measurement-base:19.0.0] /Users/apple/.gradle/caches/transforms-2/files-2.1/8fdc0287affe02a1af4a4c0949d1f8c3/play-services-measurement-base-19.0.0/AndroidManifest.xml:7:5-20
MERGED from [com.google.android.gms:play-services-measurement-base:19.0.0] /Users/apple/.gradle/caches/transforms-2/files-2.1/8fdc0287affe02a1af4a4c0949d1f8c3/play-services-measurement-base-19.0.0/AndroidManifest.xml:7:5-20
MERGED from [com.google.android.gms:play-services-basement:17.0.0] /Users/apple/.gradle/caches/transforms-2/files-2.1/c2c4012586a32b1624464106a1ba071a/jetified-play-services-basement-17.0.0/AndroidManifest.xml:22:5-26:19
MERGED from [com.google.android.gms:play-services-basement:17.0.0] /Users/apple/.gradle/caches/transforms-2/files-2.1/c2c4012586a32b1624464106a1ba071a/jetified-play-services-basement-17.0.0/AndroidManifest.xml:22:5-26:19
MERGED from [androidx.core:core:1.3.0] /Users/apple/.gradle/caches/transforms-2/files-2.1/8099c5287629f36806dd5b8b8d110cdf/core-1.3.0/AndroidManifest.xml:24:5-89
MERGED from [androidx.core:core:1.3.0] /Users/apple/.gradle/caches/transforms-2/files-2.1/8099c5287629f36806dd5b8b8d110cdf/core-1.3.0/AndroidManifest.xml:24:5-89
MERGED from [androidx.versionedparcelable:versionedparcelable:1.1.0] /Users/apple/.gradle/caches/transforms-2/files-2.1/ff330ad14ee43967414cba59d0f59077/versionedparcelable-1.1.0/AndroidManifest.xml:24:5-25:19
MERGED from [androidx.versionedparcelable:versionedparcelable:1.1.0] /Users/apple/.gradle/caches/transforms-2/files-2.1/ff330ad14ee43967414cba59d0f59077/versionedparcelable-1.1.0/AndroidManifest.xml:24:5-25:19
MERGED from [com.google.android.datatransport:transport-backend-cct:3.0.0] /Users/apple/.gradle/caches/transforms-2/files-2.1/bf67f8fa37479c4168b99c112dd28cc2/jetified-transport-backend-cct-3.0.0/AndroidManifest.xml:28:5-36:19
MERGED from [com.google.android.datatransport:transport-backend-cct:3.0.0] /Users/apple/.gradle/caches/transforms-2/files-2.1/bf67f8fa37479c4168b99c112dd28cc2/jetified-transport-backend-cct-3.0.0/AndroidManifest.xml:28:5-36:19
MERGED from [com.google.android.datatransport:transport-runtime:3.0.0] /Users/apple/.gradle/caches/transforms-2/files-2.1/d47444b005bf9c7751eb4a19f21ee215/jetified-transport-runtime-3.0.0/AndroidManifest.xml:25:5-39:19
MERGED from [com.google.android.datatransport:transport-runtime:3.0.0] /Users/apple/.gradle/caches/transforms-2/files-2.1/d47444b005bf9c7751eb4a19f21ee215/jetified-transport-runtime-3.0.0/AndroidManifest.xml:25:5-39:19
MERGED from [com.jakewharton.threetenabp:threetenabp:1.2.3] /Users/apple/.gradle/caches/transforms-2/files-2.1/ea4590e4e95b2b9b2c682834dc387089/threetenabp-1.2.3/AndroidManifest.xml:7:5-20
MERGED from [com.jakewharton.threetenabp:threetenabp:1.2.3] /Users/apple/.gradle/caches/transforms-2/files-2.1/ea4590e4e95b2b9b2c682834dc387089/threetenabp-1.2.3/AndroidManifest.xml:7:5-20
	android:appComponentFactory
		ADDED from [androidx.core:core:1.3.0] /Users/apple/.gradle/caches/transforms-2/files-2.1/8099c5287629f36806dd5b8b8d110cdf/core-1.3.0/AndroidManifest.xml:24:18-86
	android:label
		ADDED from /Users/apple/Downloads/freelance2/laybull/android/app/src/main/AndroidManifest.xml:11:9-32
	android:icon
		ADDED from /Users/apple/Downloads/freelance2/laybull/android/app/src/main/AndroidManifest.xml:12:9-43
	android:name
		ADDED from /Users/apple/Downloads/freelance2/laybull/android/app/src/main/AndroidManifest.xml:10:9-57
activity#com.LaybullEcommerce.Laybull.MainActivity
ADDED from /Users/apple/Downloads/freelance2/laybull/android/app/src/main/AndroidManifest.xml:13:9-52:20
	android:launchMode
		ADDED from /Users/apple/Downloads/freelance2/laybull/android/app/src/main/AndroidManifest.xml:15:13-43
	android:hardwareAccelerated
		ADDED from /Users/apple/Downloads/freelance2/laybull/android/app/src/main/AndroidManifest.xml:18:13-47
	android:windowSoftInputMode
		ADDED from /Users/apple/Downloads/freelance2/laybull/android/app/src/main/AndroidManifest.xml:19:13-55
	android:configChanges
		ADDED from /Users/apple/Downloads/freelance2/laybull/android/app/src/main/AndroidManifest.xml:17:13-163
	android:theme
		ADDED from /Users/apple/Downloads/freelance2/laybull/android/app/src/main/AndroidManifest.xml:16:13-47
	android:name
		ADDED from /Users/apple/Downloads/freelance2/laybull/android/app/src/main/AndroidManifest.xml:14:13-41
meta-data#com.google.firebase.messaging.default_notification_icon
ADDED from /Users/apple/Downloads/freelance2/laybull/android/app/src/main/AndroidManifest.xml:26:13-28:53
	android:resource
		ADDED from /Users/apple/Downloads/freelance2/laybull/android/app/src/main/AndroidManifest.xml:28:17-50
	android:name
		ADDED from /Users/apple/Downloads/freelance2/laybull/android/app/src/main/AndroidManifest.xml:27:17-87
meta-data#com.google.firebase.messaging.default_notification_color
ADDED from /Users/apple/Downloads/freelance2/laybull/android/app/src/main/AndroidManifest.xml:31:13-33:64
	android:resource
		ADDED from /Users/apple/Downloads/freelance2/laybull/android/app/src/main/AndroidManifest.xml:33:17-61
	android:name
		ADDED from /Users/apple/Downloads/freelance2/laybull/android/app/src/main/AndroidManifest.xml:32:17-88
meta-data#io.flutter.embedding.android.NormalTheme
ADDED from /Users/apple/Downloads/freelance2/laybull/android/app/src/main/AndroidManifest.xml:35:13-38:17
	android:resource
		ADDED from /Users/apple/Downloads/freelance2/laybull/android/app/src/main/AndroidManifest.xml:37:15-52
	android:name
		ADDED from /Users/apple/Downloads/freelance2/laybull/android/app/src/main/AndroidManifest.xml:36:15-70
meta-data#io.flutter.embedding.android.SplashScreenDrawable
ADDED from /Users/apple/Downloads/freelance2/laybull/android/app/src/main/AndroidManifest.xml:44:13-47:17
	android:resource
		ADDED from /Users/apple/Downloads/freelance2/laybull/android/app/src/main/AndroidManifest.xml:46:15-61
	android:name
		ADDED from /Users/apple/Downloads/freelance2/laybull/android/app/src/main/AndroidManifest.xml:45:15-79
intent-filter#action:name:android.intent.action.MAIN+category:name:android.intent.category.LAUNCHER
ADDED from /Users/apple/Downloads/freelance2/laybull/android/app/src/main/AndroidManifest.xml:48:13-51:29
action#android.intent.action.MAIN
ADDED from /Users/apple/Downloads/freelance2/laybull/android/app/src/main/AndroidManifest.xml:49:17-68
	android:name
		ADDED from /Users/apple/Downloads/freelance2/laybull/android/app/src/main/AndroidManifest.xml:49:25-66
category#android.intent.category.LAUNCHER
ADDED from /Users/apple/Downloads/freelance2/laybull/android/app/src/main/AndroidManifest.xml:50:17-76
	android:name
		ADDED from /Users/apple/Downloads/freelance2/laybull/android/app/src/main/AndroidManifest.xml:50:27-74
meta-data#flutterEmbedding
ADDED from /Users/apple/Downloads/freelance2/laybull/android/app/src/main/AndroidManifest.xml:55:9-57:33
	android:value
		ADDED from /Users/apple/Downloads/freelance2/laybull/android/app/src/main/AndroidManifest.xml:57:13-30
	android:name
		ADDED from /Users/apple/Downloads/freelance2/laybull/android/app/src/main/AndroidManifest.xml:56:13-44
uses-sdk
INJECTED from /Users/apple/Downloads/freelance2/laybull/android/app/src/main/AndroidManifest.xml reason: use-sdk injection requested
INJECTED from /Users/apple/Downloads/freelance2/laybull/android/app/src/main/AndroidManifest.xml
INJECTED from /Users/apple/Downloads/freelance2/laybull/android/app/src/main/AndroidManifest.xml
MERGED from [:flutter_image_compress] /Users/apple/Downloads/freelance2/laybull/build/flutter_image_compress/intermediates/library_manifest/debug/AndroidManifest.xml:6:5-9:55
MERGED from [:flutter_image_compress] /Users/apple/Downloads/freelance2/laybull/build/flutter_image_compress/intermediates/library_manifest/debug/AndroidManifest.xml:6:5-9:55
MERGED from [:fluttertoast] /Users/apple/Downloads/freelance2/laybull/build/fluttertoast/intermediates/library_manifest/debug/AndroidManifest.xml:5:5-44
MERGED from [:fluttertoast] /Users/apple/Downloads/freelance2/laybull/build/fluttertoast/intermediates/library_manifest/debug/AndroidManifest.xml:5:5-44
MERGED from [:image_picker] /Users/apple/Downloads/freelance2/laybull/build/image_picker/intermediates/library_manifest/debug/AndroidManifest.xml:5:5-44
MERGED from [:image_picker] /Users/apple/Downloads/freelance2/laybull/build/image_picker/intermediates/library_manifest/debug/AndroidManifest.xml:5:5-44
MERGED from [:flutter_plugin_android_lifecycle] /Users/apple/Downloads/freelance2/laybull/build/flutter_plugin_android_lifecycle/intermediates/library_manifest/debug/AndroidManifest.xml:5:5-44
MERGED from [:flutter_plugin_android_lifecycle] /Users/apple/Downloads/freelance2/laybull/build/flutter_plugin_android_lifecycle/intermediates/library_manifest/debug/AndroidManifest.xml:5:5-44
MERGED from [:firebase_messaging] /Users/apple/Downloads/freelance2/laybull/build/firebase_messaging/intermediates/library_manifest/debug/AndroidManifest.xml:5:5-44
MERGED from [:firebase_messaging] /Users/apple/Downloads/freelance2/laybull/build/firebase_messaging/intermediates/library_manifest/debug/AndroidManifest.xml:5:5-44
MERGED from [:url_launcher] /Users/apple/Downloads/freelance2/laybull/build/url_launcher/intermediates/library_manifest/debug/AndroidManifest.xml:5:5-44
MERGED from [:url_launcher] /Users/apple/Downloads/freelance2/laybull/build/url_launcher/intermediates/library_manifest/debug/AndroidManifest.xml:5:5-44
MERGED from [:path_provider] /Users/apple/Downloads/freelance2/laybull/build/path_provider/intermediates/library_manifest/debug/AndroidManifest.xml:5:5-44
MERGED from [:path_provider] /Users/apple/Downloads/freelance2/laybull/build/path_provider/intermediates/library_manifest/debug/AndroidManifest.xml:5:5-44
MERGED from [:flutter_local_notifications] /Users/apple/Downloads/freelance2/laybull/build/flutter_local_notifications/intermediates/library_manifest/debug/AndroidManifest.xml:5:5-44
MERGED from [:flutter_local_notifications] /Users/apple/Downloads/freelance2/laybull/build/flutter_local_notifications/intermediates/library_manifest/debug/AndroidManifest.xml:5:5-44
MERGED from [:shared_preferences] /Users/apple/Downloads/freelance2/laybull/build/shared_preferences/intermediates/library_manifest/debug/AndroidManifest.xml:5:5-44
MERGED from [:shared_preferences] /Users/apple/Downloads/freelance2/laybull/build/shared_preferences/intermediates/library_manifest/debug/AndroidManifest.xml:5:5-44
MERGED from [:firebase_core] /Users/apple/Downloads/freelance2/laybull/build/firebase_core/intermediates/library_manifest/debug/AndroidManifest.xml:5:5-44
MERGED from [:firebase_core] /Users/apple/Downloads/freelance2/laybull/build/firebase_core/intermediates/library_manifest/debug/AndroidManifest.xml:5:5-44
MERGED from [com.google.firebase:firebase-analytics-ktx:19.0.0] /Users/apple/.gradle/caches/transforms-2/files-2.1/4bcb633e23b2302360ea7d152c18ee70/firebase-analytics-ktx-19.0.0/AndroidManifest.xml:5:5-44
MERGED from [com.google.firebase:firebase-analytics-ktx:19.0.0] /Users/apple/.gradle/caches/transforms-2/files-2.1/4bcb633e23b2302360ea7d152c18ee70/firebase-analytics-ktx-19.0.0/AndroidManifest.xml:5:5-44
MERGED from [com.google.firebase:firebase-common-ktx:20.0.0] /Users/apple/.gradle/caches/transforms-2/files-2.1/d7c50ad9b2ee41722f7fbcb340b1c212/firebase-common-ktx-20.0.0/AndroidManifest.xml:6:5-8:41
MERGED from [com.google.firebase:firebase-common-ktx:20.0.0] /Users/apple/.gradle/caches/transforms-2/files-2.1/d7c50ad9b2ee41722f7fbcb340b1c212/firebase-common-ktx-20.0.0/AndroidManifest.xml:6:5-8:41
MERGED from [androidx.exifinterface:exifinterface:1.1.0] /Users/apple/.gradle/caches/transforms-2/files-2.1/cb3eb7738540f78bbe8aae27ec61804e/exifinterface-1.1.0/AndroidManifest.xml:20:5-22:41
MERGED from [androidx.exifinterface:exifinterface:1.1.0] /Users/apple/.gradle/caches/transforms-2/files-2.1/cb3eb7738540f78bbe8aae27ec61804e/exifinterface-1.1.0/AndroidManifest.xml:20:5-22:41
MERGED from [androidx.heifwriter:heifwriter:1.0.0] /Users/apple/.gradle/caches/transforms-2/files-2.1/f1da8f34dbfbfdd82327e8e00dfa9e19/heifwriter-1.0.0/AndroidManifest.xml:20:5-44
MERGED from [androidx.heifwriter:heifwriter:1.0.0] /Users/apple/.gradle/caches/transforms-2/files-2.1/f1da8f34dbfbfdd82327e8e00dfa9e19/heifwriter-1.0.0/AndroidManifest.xml:20:5-44
MERGED from [com.google.firebase:firebase-messaging:22.0.0] /Users/apple/.gradle/caches/transforms-2/files-2.1/023c9c8afbaf30c41adace25eca7bde6/jetified-firebase-messaging-22.0.0/AndroidManifest.xml:20:5-44
MERGED from [com.google.firebase:firebase-messaging:22.0.0] /Users/apple/.gradle/caches/transforms-2/files-2.1/023c9c8afbaf30c41adace25eca7bde6/jetified-firebase-messaging-22.0.0/AndroidManifest.xml:20:5-44
MERGED from [com.google.firebase:firebase-analytics:19.0.0] /Users/apple/.gradle/caches/transforms-2/files-2.1/30818c144f89f48ee570709b0a269727/firebase-analytics-19.0.0/AndroidManifest.xml:5:5-44
MERGED from [com.google.firebase:firebase-analytics:19.0.0] /Users/apple/.gradle/caches/transforms-2/files-2.1/30818c144f89f48ee570709b0a269727/firebase-analytics-19.0.0/AndroidManifest.xml:5:5-44
MERGED from [com.google.android.gms:play-services-measurement:19.0.0] /Users/apple/.gradle/caches/transforms-2/files-2.1/ae09a87ceb17057461dab98275b2323f/play-services-measurement-19.0.0/AndroidManifest.xml:20:5-44
MERGED from [com.google.android.gms:play-services-measurement:19.0.0] /Users/apple/.gradle/caches/transforms-2/files-2.1/ae09a87ceb17057461dab98275b2323f/play-services-measurement-19.0.0/AndroidManifest.xml:20:5-44
MERGED from [com.google.android.gms:play-services-measurement-sdk:19.0.0] /Users/apple/.gradle/caches/transforms-2/files-2.1/fee60ed802458aad509f43e381d95646/play-services-measurement-sdk-19.0.0/AndroidManifest.xml:20:5-44
MERGED from [com.google.android.gms:play-services-measurement-sdk:19.0.0] /Users/apple/.gradle/caches/transforms-2/files-2.1/fee60ed802458aad509f43e381d95646/play-services-measurement-sdk-19.0.0/AndroidManifest.xml:20:5-44
MERGED from [com.google.android.gms:play-services-measurement-impl:19.0.0] /Users/apple/.gradle/caches/transforms-2/files-2.1/995175598b3bc8c69ec08cc51a6479de/play-services-measurement-impl-19.0.0/AndroidManifest.xml:20:5-44
MERGED from [com.google.android.gms:play-services-measurement-impl:19.0.0] /Users/apple/.gradle/caches/transforms-2/files-2.1/995175598b3bc8c69ec08cc51a6479de/play-services-measurement-impl-19.0.0/AndroidManifest.xml:20:5-44
MERGED from [com.google.android.gms:play-services-stats:17.0.0] /Users/apple/.gradle/caches/transforms-2/files-2.1/49b597d53a7a16a0f95eebf457e4d7a1/play-services-stats-17.0.0/AndroidManifest.xml:5:5-44
MERGED from [com.google.android.gms:play-services-stats:17.0.0] /Users/apple/.gradle/caches/transforms-2/files-2.1/49b597d53a7a16a0f95eebf457e4d7a1/play-services-stats-17.0.0/AndroidManifest.xml:5:5-44
MERGED from [androidx.legacy:legacy-support-core-utils:1.0.0] /Users/apple/.gradle/caches/transforms-2/files-2.1/430a25e9ce75acf2aaab3ffc8abd59e4/legacy-support-core-utils-1.0.0/AndroidManifest.xml:20:5-44
MERGED from [androidx.legacy:legacy-support-core-utils:1.0.0] /Users/apple/.gradle/caches/transforms-2/files-2.1/430a25e9ce75acf2aaab3ffc8abd59e4/legacy-support-core-utils-1.0.0/AndroidManifest.xml:20:5-44
MERGED from [androidx.localbroadcastmanager:localbroadcastmanager:1.0.0] /Users/apple/.gradle/caches/transforms-2/files-2.1/8c9586cd05c6f6e8bcc098c4069f871f/localbroadcastmanager-1.0.0/AndroidManifest.xml:20:5-44
MERGED from [androidx.localbroadcastmanager:localbroadcastmanager:1.0.0] /Users/apple/.gradle/caches/transforms-2/files-2.1/8c9586cd05c6f6e8bcc098c4069f871f/localbroadcastmanager-1.0.0/AndroidManifest.xml:20:5-44
MERGED from [androidx.media:media:1.1.0] /Users/apple/.gradle/caches/transforms-2/files-2.1/7b69d63459b6298517d96a9ba18f4500/media-1.1.0/AndroidManifest.xml:20:5-22:41
MERGED from [androidx.media:media:1.1.0] /Users/apple/.gradle/caches/transforms-2/files-2.1/7b69d63459b6298517d96a9ba18f4500/media-1.1.0/AndroidManifest.xml:20:5-22:41
MERGED from [com.google.firebase:firebase-datatransport:18.0.0] /Users/apple/.gradle/caches/transforms-2/files-2.1/7fde8af00e3fcdab8e20440bbb906c69/firebase-datatransport-18.0.0/AndroidManifest.xml:19:5-21:41
MERGED from [com.google.firebase:firebase-datatransport:18.0.0] /Users/apple/.gradle/caches/transforms-2/files-2.1/7fde8af00e3fcdab8e20440bbb906c69/firebase-datatransport-18.0.0/AndroidManifest.xml:19:5-21:41
MERGED from [com.google.android.gms:play-services-measurement-api:19.0.0] /Users/apple/.gradle/caches/transforms-2/files-2.1/6283c31df1a5ff5b5adf31d5b2c18d0b/play-services-measurement-api-19.0.0/AndroidManifest.xml:20:5-44
MERGED from [com.google.android.gms:play-services-measurement-api:19.0.0] /Users/apple/.gradle/caches/transforms-2/files-2.1/6283c31df1a5ff5b5adf31d5b2c18d0b/play-services-measurement-api-19.0.0/AndroidManifest.xml:20:5-44
MERGED from [com.google.firebase:firebase-installations:17.0.0] /Users/apple/.gradle/caches/transforms-2/files-2.1/5a84543ef7ffe5ea13f86bfa99578d82/firebase-installations-17.0.0/AndroidManifest.xml:6:5-8:41
MERGED from [com.google.firebase:firebase-installations:17.0.0] /Users/apple/.gradle/caches/transforms-2/files-2.1/5a84543ef7ffe5ea13f86bfa99578d82/firebase-installations-17.0.0/AndroidManifest.xml:6:5-8:41
MERGED from [com.google.firebase:firebase-common:20.0.0] /Users/apple/.gradle/caches/transforms-2/files-2.1/48d27c24c69d71f8a23bd6bf4b8a3170/jetified-firebase-common-20.0.0/AndroidManifest.xml:20:5-22:41
MERGED from [com.google.firebase:firebase-common:20.0.0] /Users/apple/.gradle/caches/transforms-2/files-2.1/48d27c24c69d71f8a23bd6bf4b8a3170/jetified-firebase-common-20.0.0/AndroidManifest.xml:20:5-22:41
MERGED from [com.google.android.gms:play-services-cloud-messaging:16.0.0] /Users/apple/.gradle/caches/transforms-2/files-2.1/f4a0d351c388375dfc747d864225d593/play-services-cloud-messaging-16.0.0/AndroidManifest.xml:5:5-44
MERGED from [com.google.android.gms:play-services-cloud-messaging:16.0.0] /Users/apple/.gradle/caches/transforms-2/files-2.1/f4a0d351c388375dfc747d864225d593/play-services-cloud-messaging-16.0.0/AndroidManifest.xml:5:5-44
MERGED from [com.google.firebase:firebase-iid-interop:17.1.0] /Users/apple/.gradle/caches/transforms-2/files-2.1/8efc8e30cf5b6e44c06bd6104d06d79a/firebase-iid-interop-17.1.0/AndroidManifest.xml:5:5-44
MERGED from [com.google.firebase:firebase-iid-interop:17.1.0] /Users/apple/.gradle/caches/transforms-2/files-2.1/8efc8e30cf5b6e44c06bd6104d06d79a/firebase-iid-interop-17.1.0/AndroidManifest.xml:5:5-44
MERGED from [com.google.firebase:firebase-installations-interop:17.0.0] /Users/apple/.gradle/caches/transforms-2/files-2.1/c8b2424fcc4e78cb8ab75fb1c3a6e1a6/firebase-installations-interop-17.0.0/AndroidManifest.xml:19:5-21:41
MERGED from [com.google.firebase:firebase-installations-interop:17.0.0] /Users/apple/.gradle/caches/transforms-2/files-2.1/c8b2424fcc4e78cb8ab75fb1c3a6e1a6/firebase-installations-interop-17.0.0/AndroidManifest.xml:19:5-21:41
MERGED from [com.google.android.gms:play-services-tasks:17.0.0] /Users/apple/.gradle/caches/transforms-2/files-2.1/efe426f7d3cec649557d6c7c729de5a4/play-services-tasks-17.0.0/AndroidManifest.xml:5:5-44
MERGED from [com.google.android.gms:play-services-tasks:17.0.0] /Users/apple/.gradle/caches/transforms-2/files-2.1/efe426f7d3cec649557d6c7c729de5a4/play-services-tasks-17.0.0/AndroidManifest.xml:5:5-44
MERGED from [com.google.firebase:firebase-measurement-connector:19.0.0] /Users/apple/.gradle/caches/transforms-2/files-2.1/0f31d8ecd756c2195819cb08d0cb111e/firebase-measurement-connector-19.0.0/AndroidManifest.xml:20:5-44
MERGED from [com.google.firebase:firebase-measurement-connector:19.0.0] /Users/apple/.gradle/caches/transforms-2/files-2.1/0f31d8ecd756c2195819cb08d0cb111e/firebase-measurement-connector-19.0.0/AndroidManifest.xml:20:5-44
MERGED from [com.google.android.gms:play-services-ads-identifier:17.0.0] /Users/apple/.gradle/caches/transforms-2/files-2.1/a576b31cd7f781350aadd1c5723fafe8/play-services-ads-identifier-17.0.0/AndroidManifest.xml:20:5-44
MERGED from [com.google.android.gms:play-services-ads-identifier:17.0.0] /Users/apple/.gradle/caches/transforms-2/files-2.1/a576b31cd7f781350aadd1c5723fafe8/play-services-ads-identifier-17.0.0/AndroidManifest.xml:20:5-44
MERGED from [com.google.android.gms:play-services-measurement-sdk-api:19.0.0] /Users/apple/.gradle/caches/transforms-2/files-2.1/45f3290cd9215ef94cff8324ea4a69ed/play-services-measurement-sdk-api-19.0.0/AndroidManifest.xml:20:5-44
MERGED from [com.google.android.gms:play-services-measurement-sdk-api:19.0.0] /Users/apple/.gradle/caches/transforms-2/files-2.1/45f3290cd9215ef94cff8324ea4a69ed/play-services-measurement-sdk-api-19.0.0/AndroidManifest.xml:20:5-44
MERGED from [com.google.android.gms:play-services-measurement-base:19.0.0] /Users/apple/.gradle/caches/transforms-2/files-2.1/8fdc0287affe02a1af4a4c0949d1f8c3/play-services-measurement-base-19.0.0/AndroidManifest.xml:5:5-44
MERGED from [com.google.android.gms:play-services-measurement-base:19.0.0] /Users/apple/.gradle/caches/transforms-2/files-2.1/8fdc0287affe02a1af4a4c0949d1f8c3/play-services-measurement-base-19.0.0/AndroidManifest.xml:5:5-44
MERGED from [com.google.android.gms:play-services-basement:17.0.0] /Users/apple/.gradle/caches/transforms-2/files-2.1/c2c4012586a32b1624464106a1ba071a/jetified-play-services-basement-17.0.0/AndroidManifest.xml:20:5-44
MERGED from [com.google.android.gms:play-services-basement:17.0.0] /Users/apple/.gradle/caches/transforms-2/files-2.1/c2c4012586a32b1624464106a1ba071a/jetified-play-services-basement-17.0.0/AndroidManifest.xml:20:5-44
MERGED from [androidx.fragment:fragment:1.1.0] /Users/apple/.gradle/caches/transforms-2/files-2.1/df21e69f08184007578c22065511d3e3/fragment-1.1.0/AndroidManifest.xml:20:5-22:41
MERGED from [androidx.fragment:fragment:1.1.0] /Users/apple/.gradle/caches/transforms-2/files-2.1/df21e69f08184007578c22065511d3e3/fragment-1.1.0/AndroidManifest.xml:20:5-22:41
MERGED from [androidx.viewpager:viewpager:1.0.0] /Users/apple/.gradle/caches/transforms-2/files-2.1/fc66baf75c90ce429d24ec04d437c235/viewpager-1.0.0/AndroidManifest.xml:20:5-44
MERGED from [androidx.viewpager:viewpager:1.0.0] /Users/apple/.gradle/caches/transforms-2/files-2.1/fc66baf75c90ce429d24ec04d437c235/viewpager-1.0.0/AndroidManifest.xml:20:5-44
MERGED from [androidx.loader:loader:1.0.0] /Users/apple/.gradle/caches/transforms-2/files-2.1/78e0a0a088de3f997bf7a754d5e7b08c/loader-1.0.0/AndroidManifest.xml:20:5-44
MERGED from [androidx.loader:loader:1.0.0] /Users/apple/.gradle/caches/transforms-2/files-2.1/78e0a0a088de3f997bf7a754d5e7b08c/loader-1.0.0/AndroidManifest.xml:20:5-44
MERGED from [androidx.activity:activity:1.0.0] /Users/apple/.gradle/caches/transforms-2/files-2.1/6b15249d931586d1d19b724df864b389/activity-1.0.0/AndroidManifest.xml:20:5-22:41
MERGED from [androidx.activity:activity:1.0.0] /Users/apple/.gradle/caches/transforms-2/files-2.1/6b15249d931586d1d19b724df864b389/activity-1.0.0/AndroidManifest.xml:20:5-22:41
MERGED from [androidx.customview:customview:1.0.0] /Users/apple/.gradle/caches/transforms-2/files-2.1/5dbd1957980065fa0d02635b580951a2/customview-1.0.0/AndroidManifest.xml:20:5-44
MERGED from [androidx.customview:customview:1.0.0] /Users/apple/.gradle/caches/transforms-2/files-2.1/5dbd1957980065fa0d02635b580951a2/customview-1.0.0/AndroidManifest.xml:20:5-44
MERGED from [androidx.core:core:1.3.0] /Users/apple/.gradle/caches/transforms-2/files-2.1/8099c5287629f36806dd5b8b8d110cdf/core-1.3.0/AndroidManifest.xml:20:5-22:41
MERGED from [androidx.core:core:1.3.0] /Users/apple/.gradle/caches/transforms-2/files-2.1/8099c5287629f36806dd5b8b8d110cdf/core-1.3.0/AndroidManifest.xml:20:5-22:41
MERGED from [androidx.lifecycle:lifecycle-runtime:2.2.0] /Users/apple/.gradle/caches/transforms-2/files-2.1/8bd15a56d6b3f2200bd43592357a15d6/lifecycle-runtime-2.2.0/AndroidManifest.xml:20:5-22:41
MERGED from [androidx.lifecycle:lifecycle-runtime:2.2.0] /Users/apple/.gradle/caches/transforms-2/files-2.1/8bd15a56d6b3f2200bd43592357a15d6/lifecycle-runtime-2.2.0/AndroidManifest.xml:20:5-22:41
MERGED from [androidx.savedstate:savedstate:1.0.0] /Users/apple/.gradle/caches/transforms-2/files-2.1/ae936fceae16a6df2cf48186c2766310/savedstate-1.0.0/AndroidManifest.xml:20:5-22:41
MERGED from [androidx.savedstate:savedstate:1.0.0] /Users/apple/.gradle/caches/transforms-2/files-2.1/ae936fceae16a6df2cf48186c2766310/savedstate-1.0.0/AndroidManifest.xml:20:5-22:41
MERGED from [androidx.lifecycle:lifecycle-livedata:2.0.0] /Users/apple/.gradle/caches/transforms-2/files-2.1/708e6dabb13c3a46e8ec454b15b51bc6/lifecycle-livedata-2.0.0/AndroidManifest.xml:20:5-44
MERGED from [androidx.lifecycle:lifecycle-livedata:2.0.0] /Users/apple/.gradle/caches/transforms-2/files-2.1/708e6dabb13c3a46e8ec454b15b51bc6/lifecycle-livedata-2.0.0/AndroidManifest.xml:20:5-44
MERGED from [androidx.lifecycle:lifecycle-livedata-core:2.0.0] /Users/apple/.gradle/caches/transforms-2/files-2.1/f78e0789a64f50bf539e58984f9469aa/lifecycle-livedata-core-2.0.0/AndroidManifest.xml:20:5-44
MERGED from [androidx.lifecycle:lifecycle-livedata-core:2.0.0] /Users/apple/.gradle/caches/transforms-2/files-2.1/f78e0789a64f50bf539e58984f9469aa/lifecycle-livedata-core-2.0.0/AndroidManifest.xml:20:5-44
MERGED from [androidx.versionedparcelable:versionedparcelable:1.1.0] /Users/apple/.gradle/caches/transforms-2/files-2.1/ff330ad14ee43967414cba59d0f59077/versionedparcelable-1.1.0/AndroidManifest.xml:20:5-22:41
MERGED from [androidx.versionedparcelable:versionedparcelable:1.1.0] /Users/apple/.gradle/caches/transforms-2/files-2.1/ff330ad14ee43967414cba59d0f59077/versionedparcelable-1.1.0/AndroidManifest.xml:20:5-22:41
MERGED from [com.google.firebase:firebase-components:17.0.0] /Users/apple/.gradle/caches/transforms-2/files-2.1/85ff51e09773ab99d4bfdb41a3f13a7b/jetified-firebase-components-17.0.0/AndroidManifest.xml:19:5-21:41
MERGED from [com.google.firebase:firebase-components:17.0.0] /Users/apple/.gradle/caches/transforms-2/files-2.1/85ff51e09773ab99d4bfdb41a3f13a7b/jetified-firebase-components-17.0.0/AndroidManifest.xml:19:5-21:41
MERGED from [com.google.android.datatransport:transport-backend-cct:3.0.0] /Users/apple/.gradle/caches/transforms-2/files-2.1/bf67f8fa37479c4168b99c112dd28cc2/jetified-transport-backend-cct-3.0.0/AndroidManifest.xml:19:5-21:41
MERGED from [com.google.android.datatransport:transport-backend-cct:3.0.0] /Users/apple/.gradle/caches/transforms-2/files-2.1/bf67f8fa37479c4168b99c112dd28cc2/jetified-transport-backend-cct-3.0.0/AndroidManifest.xml:19:5-21:41
MERGED from [com.google.android.datatransport:transport-runtime:3.0.0] /Users/apple/.gradle/caches/transforms-2/files-2.1/d47444b005bf9c7751eb4a19f21ee215/jetified-transport-runtime-3.0.0/AndroidManifest.xml:18:5-20:41
MERGED from [com.google.android.datatransport:transport-runtime:3.0.0] /Users/apple/.gradle/caches/transforms-2/files-2.1/d47444b005bf9c7751eb4a19f21ee215/jetified-transport-runtime-3.0.0/AndroidManifest.xml:18:5-20:41
MERGED from [com.google.android.datatransport:transport-api:3.0.0] /Users/apple/.gradle/caches/transforms-2/files-2.1/94f57aa78094933d775e804700d01dae/jetified-transport-api-3.0.0/AndroidManifest.xml:18:5-20:41
MERGED from [com.google.android.datatransport:transport-api:3.0.0] /Users/apple/.gradle/caches/transforms-2/files-2.1/94f57aa78094933d775e804700d01dae/jetified-transport-api-3.0.0/AndroidManifest.xml:18:5-20:41
MERGED from [androidx.arch.core:core-runtime:2.0.0] /Users/apple/.gradle/caches/transforms-2/files-2.1/7e51c8c41e5c39fa50436579f99c2aa2/core-runtime-2.0.0/AndroidManifest.xml:20:5-44
MERGED from [androidx.arch.core:core-runtime:2.0.0] /Users/apple/.gradle/caches/transforms-2/files-2.1/7e51c8c41e5c39fa50436579f99c2aa2/core-runtime-2.0.0/AndroidManifest.xml:20:5-44
MERGED from [com.google.firebase:firebase-encoders-json:18.0.0] /Users/apple/.gradle/caches/transforms-2/files-2.1/447f1a816da13d05b1bcee2861eb5b6c/firebase-encoders-json-18.0.0/AndroidManifest.xml:19:5-21:41
MERGED from [com.google.firebase:firebase-encoders-json:18.0.0] /Users/apple/.gradle/caches/transforms-2/files-2.1/447f1a816da13d05b1bcee2861eb5b6c/firebase-encoders-json-18.0.0/AndroidManifest.xml:19:5-21:41
MERGED from [androidx.lifecycle:lifecycle-viewmodel:2.1.0] /Users/apple/.gradle/caches/transforms-2/files-2.1/ea67db9fbc919441507abec4d12afc59/lifecycle-viewmodel-2.1.0/AndroidManifest.xml:20:5-44
MERGED from [androidx.lifecycle:lifecycle-viewmodel:2.1.0] /Users/apple/.gradle/caches/transforms-2/files-2.1/ea67db9fbc919441507abec4d12afc59/lifecycle-viewmodel-2.1.0/AndroidManifest.xml:20:5-44
MERGED from [androidx.documentfile:documentfile:1.0.0] /Users/apple/.gradle/caches/transforms-2/files-2.1/d25e6b0b5bd88eea6b64db66fff4ffa2/documentfile-1.0.0/AndroidManifest.xml:20:5-44
MERGED from [androidx.documentfile:documentfile:1.0.0] /Users/apple/.gradle/caches/transforms-2/files-2.1/d25e6b0b5bd88eea6b64db66fff4ffa2/documentfile-1.0.0/AndroidManifest.xml:20:5-44
MERGED from [androidx.print:print:1.0.0] /Users/apple/.gradle/caches/transforms-2/files-2.1/6dad1988f89bd0b26bb54813d4dca87e/print-1.0.0/AndroidManifest.xml:20:5-44
MERGED from [androidx.print:print:1.0.0] /Users/apple/.gradle/caches/transforms-2/files-2.1/6dad1988f89bd0b26bb54813d4dca87e/print-1.0.0/AndroidManifest.xml:20:5-44
MERGED from [com.jakewharton.threetenabp:threetenabp:1.2.3] /Users/apple/.gradle/caches/transforms-2/files-2.1/ea4590e4e95b2b9b2c682834dc387089/threetenabp-1.2.3/AndroidManifest.xml:5:5-44
MERGED from [com.jakewharton.threetenabp:threetenabp:1.2.3] /Users/apple/.gradle/caches/transforms-2/files-2.1/ea4590e4e95b2b9b2c682834dc387089/threetenabp-1.2.3/AndroidManifest.xml:5:5-44
INJECTED from /Users/apple/Downloads/freelance2/laybull/android/app/src/debug/AndroidManifest.xml
INJECTED from /Users/apple/Downloads/freelance2/laybull/android/app/src/debug/AndroidManifest.xml
	tools:overrideLibrary
		ADDED from [:flutter_image_compress] /Users/apple/Downloads/freelance2/laybull/build/flutter_image_compress/intermediates/library_manifest/debug/AndroidManifest.xml:9:9-52
	android:targetSdkVersion
		INJECTED from /Users/apple/Downloads/freelance2/laybull/android/app/src/main/AndroidManifest.xml
		INJECTED from /Users/apple/Downloads/freelance2/laybull/android/app/src/debug/AndroidManifest.xml
	android:minSdkVersion
		INJECTED from /Users/apple/Downloads/freelance2/laybull/android/app/src/main/AndroidManifest.xml
		INJECTED from /Users/apple/Downloads/freelance2/laybull/android/app/src/debug/AndroidManifest.xml
uses-permission#android.permission.READ_EXTERNAL_STORAGE
ADDED from [:image_picker] /Users/apple/Downloads/freelance2/laybull/build/image_picker/intermediates/library_manifest/debug/AndroidManifest.xml:7:5-80
	android:name
		ADDED from [:image_picker] /Users/apple/Downloads/freelance2/laybull/build/image_picker/intermediates/library_manifest/debug/AndroidManifest.xml:7:22-77
uses-permission#android.permission.WRITE_EXTERNAL_STORAGE
ADDED from [:image_picker] /Users/apple/Downloads/freelance2/laybull/build/image_picker/intermediates/library_manifest/debug/AndroidManifest.xml:8:5-81
	android:name
		ADDED from [:image_picker] /Users/apple/Downloads/freelance2/laybull/build/image_picker/intermediates/library_manifest/debug/AndroidManifest.xml:8:22-78
provider#io.flutter.plugins.imagepicker.ImagePickerFileProvider
ADDED from [:image_picker] /Users/apple/Downloads/freelance2/laybull/build/image_picker/intermediates/library_manifest/debug/AndroidManifest.xml:11:9-19:20
	android:grantUriPermissions
		ADDED from [:image_picker] /Users/apple/Downloads/freelance2/laybull/build/image_picker/intermediates/library_manifest/debug/AndroidManifest.xml:15:13-47
	android:authorities
		ADDED from [:image_picker] /Users/apple/Downloads/freelance2/laybull/build/image_picker/intermediates/library_manifest/debug/AndroidManifest.xml:13:13-74
	android:exported
		ADDED from [:image_picker] /Users/apple/Downloads/freelance2/laybull/build/image_picker/intermediates/library_manifest/debug/AndroidManifest.xml:14:13-37
	android:name
		ADDED from [:image_picker] /Users/apple/Downloads/freelance2/laybull/build/image_picker/intermediates/library_manifest/debug/AndroidManifest.xml:12:13-82
meta-data#android.support.FILE_PROVIDER_PATHS
ADDED from [:image_picker] /Users/apple/Downloads/freelance2/laybull/build/image_picker/intermediates/library_manifest/debug/AndroidManifest.xml:16:13-18:75
	android:resource
		ADDED from [:image_picker] /Users/apple/Downloads/freelance2/laybull/build/image_picker/intermediates/library_manifest/debug/AndroidManifest.xml:18:17-72
	android:name
		ADDED from [:image_picker] /Users/apple/Downloads/freelance2/laybull/build/image_picker/intermediates/library_manifest/debug/AndroidManifest.xml:17:17-67
uses-permission#android.permission.WAKE_LOCK
ADDED from [:firebase_messaging] /Users/apple/Downloads/freelance2/laybull/build/firebase_messaging/intermediates/library_manifest/debug/AndroidManifest.xml:8:5-68
MERGED from [com.google.firebase:firebase-messaging:22.0.0] /Users/apple/.gradle/caches/transforms-2/files-2.1/023c9c8afbaf30c41adace25eca7bde6/jetified-firebase-messaging-22.0.0/AndroidManifest.xml:23:5-68
MERGED from [com.google.firebase:firebase-messaging:22.0.0] /Users/apple/.gradle/caches/transforms-2/files-2.1/023c9c8afbaf30c41adace25eca7bde6/jetified-firebase-messaging-22.0.0/AndroidManifest.xml:23:5-68
MERGED from [com.google.android.gms:play-services-measurement:19.0.0] /Users/apple/.gradle/caches/transforms-2/files-2.1/ae09a87ceb17057461dab98275b2323f/play-services-measurement-19.0.0/AndroidManifest.xml:25:5-68
MERGED from [com.google.android.gms:play-services-measurement:19.0.0] /Users/apple/.gradle/caches/transforms-2/files-2.1/ae09a87ceb17057461dab98275b2323f/play-services-measurement-19.0.0/AndroidManifest.xml:25:5-68
MERGED from [com.google.android.gms:play-services-measurement-impl:19.0.0] /Users/apple/.gradle/caches/transforms-2/files-2.1/995175598b3bc8c69ec08cc51a6479de/play-services-measurement-impl-19.0.0/AndroidManifest.xml:25:5-68
MERGED from [com.google.android.gms:play-services-measurement-impl:19.0.0] /Users/apple/.gradle/caches/transforms-2/files-2.1/995175598b3bc8c69ec08cc51a6479de/play-services-measurement-impl-19.0.0/AndroidManifest.xml:25:5-68
MERGED from [com.google.android.gms:play-services-measurement-api:19.0.0] /Users/apple/.gradle/caches/transforms-2/files-2.1/6283c31df1a5ff5b5adf31d5b2c18d0b/play-services-measurement-api-19.0.0/AndroidManifest.xml:24:5-68
MERGED from [com.google.android.gms:play-services-measurement-api:19.0.0] /Users/apple/.gradle/caches/transforms-2/files-2.1/6283c31df1a5ff5b5adf31d5b2c18d0b/play-services-measurement-api-19.0.0/AndroidManifest.xml:24:5-68
MERGED from [com.google.android.gms:play-services-cloud-messaging:16.0.0] /Users/apple/.gradle/caches/transforms-2/files-2.1/f4a0d351c388375dfc747d864225d593/play-services-cloud-messaging-16.0.0/AndroidManifest.xml:9:5-68
MERGED from [com.google.android.gms:play-services-cloud-messaging:16.0.0] /Users/apple/.gradle/caches/transforms-2/files-2.1/f4a0d351c388375dfc747d864225d593/play-services-cloud-messaging-16.0.0/AndroidManifest.xml:9:5-68
MERGED from [com.google.android.gms:play-services-measurement-sdk-api:19.0.0] /Users/apple/.gradle/caches/transforms-2/files-2.1/45f3290cd9215ef94cff8324ea4a69ed/play-services-measurement-sdk-api-19.0.0/AndroidManifest.xml:25:5-68
MERGED from [com.google.android.gms:play-services-measurement-sdk-api:19.0.0] /Users/apple/.gradle/caches/transforms-2/files-2.1/45f3290cd9215ef94cff8324ea4a69ed/play-services-measurement-sdk-api-19.0.0/AndroidManifest.xml:25:5-68
	android:name
		ADDED from [:firebase_messaging] /Users/apple/Downloads/freelance2/laybull/build/firebase_messaging/intermediates/library_manifest/debug/AndroidManifest.xml:8:22-65
uses-permission#android.permission.ACCESS_NETWORK_STATE
ADDED from [:firebase_messaging] /Users/apple/Downloads/freelance2/laybull/build/firebase_messaging/intermediates/library_manifest/debug/AndroidManifest.xml:9:5-79
MERGED from [com.google.firebase:firebase-messaging:22.0.0] /Users/apple/.gradle/caches/transforms-2/files-2.1/023c9c8afbaf30c41adace25eca7bde6/jetified-firebase-messaging-22.0.0/AndroidManifest.xml:22:5-79
MERGED from [com.google.firebase:firebase-messaging:22.0.0] /Users/apple/.gradle/caches/transforms-2/files-2.1/023c9c8afbaf30c41adace25eca7bde6/jetified-firebase-messaging-22.0.0/AndroidManifest.xml:22:5-79
MERGED from [com.google.android.gms:play-services-measurement:19.0.0] /Users/apple/.gradle/caches/transforms-2/files-2.1/ae09a87ceb17057461dab98275b2323f/play-services-measurement-19.0.0/AndroidManifest.xml:24:5-79
MERGED from [com.google.android.gms:play-services-measurement:19.0.0] /Users/apple/.gradle/caches/transforms-2/files-2.1/ae09a87ceb17057461dab98275b2323f/play-services-measurement-19.0.0/AndroidManifest.xml:24:5-79
MERGED from [com.google.android.gms:play-services-measurement-impl:19.0.0] /Users/apple/.gradle/caches/transforms-2/files-2.1/995175598b3bc8c69ec08cc51a6479de/play-services-measurement-impl-19.0.0/AndroidManifest.xml:24:5-79
MERGED from [com.google.android.gms:play-services-measurement-impl:19.0.0] /Users/apple/.gradle/caches/transforms-2/files-2.1/995175598b3bc8c69ec08cc51a6479de/play-services-measurement-impl-19.0.0/AndroidManifest.xml:24:5-79
MERGED from [com.google.android.gms:play-services-measurement-api:19.0.0] /Users/apple/.gradle/caches/transforms-2/files-2.1/6283c31df1a5ff5b5adf31d5b2c18d0b/play-services-measurement-api-19.0.0/AndroidManifest.xml:23:5-79
MERGED from [com.google.android.gms:play-services-measurement-api:19.0.0] /Users/apple/.gradle/caches/transforms-2/files-2.1/6283c31df1a5ff5b5adf31d5b2c18d0b/play-services-measurement-api-19.0.0/AndroidManifest.xml:23:5-79
MERGED from [com.google.firebase:firebase-installations:17.0.0] /Users/apple/.gradle/caches/transforms-2/files-2.1/5a84543ef7ffe5ea13f86bfa99578d82/firebase-installations-17.0.0/AndroidManifest.xml:10:5-79
MERGED from [com.google.firebase:firebase-installations:17.0.0] /Users/apple/.gradle/caches/transforms-2/files-2.1/5a84543ef7ffe5ea13f86bfa99578d82/firebase-installations-17.0.0/AndroidManifest.xml:10:5-79
MERGED from [com.google.android.gms:play-services-cloud-messaging:16.0.0] /Users/apple/.gradle/caches/transforms-2/files-2.1/f4a0d351c388375dfc747d864225d593/play-services-cloud-messaging-16.0.0/AndroidManifest.xml:7:5-79
MERGED from [com.google.android.gms:play-services-cloud-messaging:16.0.0] /Users/apple/.gradle/caches/transforms-2/files-2.1/f4a0d351c388375dfc747d864225d593/play-services-cloud-messaging-16.0.0/AndroidManifest.xml:7:5-79
MERGED from [com.google.android.gms:play-services-measurement-sdk-api:19.0.0] /Users/apple/.gradle/caches/transforms-2/files-2.1/45f3290cd9215ef94cff8324ea4a69ed/play-services-measurement-sdk-api-19.0.0/AndroidManifest.xml:24:5-79
MERGED from [com.google.android.gms:play-services-measurement-sdk-api:19.0.0] /Users/apple/.gradle/caches/transforms-2/files-2.1/45f3290cd9215ef94cff8324ea4a69ed/play-services-measurement-sdk-api-19.0.0/AndroidManifest.xml:24:5-79
MERGED from [com.google.android.datatransport:transport-backend-cct:3.0.0] /Users/apple/.gradle/caches/transforms-2/files-2.1/bf67f8fa37479c4168b99c112dd28cc2/jetified-transport-backend-cct-3.0.0/AndroidManifest.xml:25:5-79
MERGED from [com.google.android.datatransport:transport-backend-cct:3.0.0] /Users/apple/.gradle/caches/transforms-2/files-2.1/bf67f8fa37479c4168b99c112dd28cc2/jetified-transport-backend-cct-3.0.0/AndroidManifest.xml:25:5-79
MERGED from [com.google.android.datatransport:transport-runtime:3.0.0] /Users/apple/.gradle/caches/transforms-2/files-2.1/d47444b005bf9c7751eb4a19f21ee215/jetified-transport-runtime-3.0.0/AndroidManifest.xml:22:5-79
MERGED from [com.google.android.datatransport:transport-runtime:3.0.0] /Users/apple/.gradle/caches/transforms-2/files-2.1/d47444b005bf9c7751eb4a19f21ee215/jetified-transport-runtime-3.0.0/AndroidManifest.xml:22:5-79
	android:name
		ADDED from [:firebase_messaging] /Users/apple/Downloads/freelance2/laybull/build/firebase_messaging/intermediates/library_manifest/debug/AndroidManifest.xml:9:22-76
service#io.flutter.plugins.firebase.messaging.FlutterFirebaseMessagingBackgroundService
ADDED from [:firebase_messaging] /Users/apple/Downloads/freelance2/laybull/build/firebase_messaging/intermediates/library_manifest/debug/AndroidManifest.xml:12:9-15:72
	android:exported
		ADDED from [:firebase_messaging] /Users/apple/Downloads/freelance2/laybull/build/firebase_messaging/intermediates/library_manifest/debug/AndroidManifest.xml:14:13-37
	android:permission
		ADDED from [:firebase_messaging] /Users/apple/Downloads/freelance2/laybull/build/firebase_messaging/intermediates/library_manifest/debug/AndroidManifest.xml:15:13-69
	android:name
		ADDED from [:firebase_messaging] /Users/apple/Downloads/freelance2/laybull/build/firebase_messaging/intermediates/library_manifest/debug/AndroidManifest.xml:13:13-107
service#io.flutter.plugins.firebase.messaging.FlutterFirebaseMessagingService
ADDED from [:firebase_messaging] /Users/apple/Downloads/freelance2/laybull/build/firebase_messaging/intermediates/library_manifest/debug/AndroidManifest.xml:16:9-22:19
	android:exported
		ADDED from [:firebase_messaging] /Users/apple/Downloads/freelance2/laybull/build/firebase_messaging/intermediates/library_manifest/debug/AndroidManifest.xml:18:13-37
	android:name
		ADDED from [:firebase_messaging] /Users/apple/Downloads/freelance2/laybull/build/firebase_messaging/intermediates/library_manifest/debug/AndroidManifest.xml:17:13-97
intent-filter#action:name:com.google.firebase.MESSAGING_EVENT
ADDED from [:firebase_messaging] /Users/apple/Downloads/freelance2/laybull/build/firebase_messaging/intermediates/library_manifest/debug/AndroidManifest.xml:19:13-21:29
action#com.google.firebase.MESSAGING_EVENT
ADDED from [:firebase_messaging] /Users/apple/Downloads/freelance2/laybull/build/firebase_messaging/intermediates/library_manifest/debug/AndroidManifest.xml:20:17-78
	android:name
		ADDED from [:firebase_messaging] /Users/apple/Downloads/freelance2/laybull/build/firebase_messaging/intermediates/library_manifest/debug/AndroidManifest.xml:20:25-75
receiver#io.flutter.plugins.firebase.messaging.FlutterFirebaseMessagingReceiver
ADDED from [:firebase_messaging] /Users/apple/Downloads/freelance2/laybull/build/firebase_messaging/intermediates/library_manifest/debug/AndroidManifest.xml:24:9-31:20
	android:exported
		ADDED from [:firebase_messaging] /Users/apple/Downloads/freelance2/laybull/build/firebase_messaging/intermediates/library_manifest/debug/AndroidManifest.xml:26:13-36
	android:permission
		ADDED from [:firebase_messaging] /Users/apple/Downloads/freelance2/laybull/build/firebase_messaging/intermediates/library_manifest/debug/AndroidManifest.xml:27:13-73
	android:name
		ADDED from [:firebase_messaging] /Users/apple/Downloads/freelance2/laybull/build/firebase_messaging/intermediates/library_manifest/debug/AndroidManifest.xml:25:13-98
intent-filter#action:name:com.google.android.c2dm.intent.RECEIVE
ADDED from [:firebase_messaging] /Users/apple/Downloads/freelance2/laybull/build/firebase_messaging/intermediates/library_manifest/debug/AndroidManifest.xml:28:13-30:29
action#com.google.android.c2dm.intent.RECEIVE
ADDED from [:firebase_messaging] /Users/apple/Downloads/freelance2/laybull/build/firebase_messaging/intermediates/library_manifest/debug/AndroidManifest.xml:29:17-81
	android:name
		ADDED from [:firebase_messaging] /Users/apple/Downloads/freelance2/laybull/build/firebase_messaging/intermediates/library_manifest/debug/AndroidManifest.xml:29:25-78
service#com.google.firebase.components.ComponentDiscoveryService
ADDED from [:firebase_messaging] /Users/apple/Downloads/freelance2/laybull/build/firebase_messaging/intermediates/library_manifest/debug/AndroidManifest.xml:33:9-37:19
MERGED from [:firebase_core] /Users/apple/Downloads/freelance2/laybull/build/firebase_core/intermediates/library_manifest/debug/AndroidManifest.xml:8:9-12:19
MERGED from [:firebase_core] /Users/apple/Downloads/freelance2/laybull/build/firebase_core/intermediates/library_manifest/debug/AndroidManifest.xml:8:9-12:19
MERGED from [com.google.firebase:firebase-analytics-ktx:19.0.0] /Users/apple/.gradle/caches/transforms-2/files-2.1/4bcb633e23b2302360ea7d152c18ee70/firebase-analytics-ktx-19.0.0/AndroidManifest.xml:8:9-14:19
MERGED from [com.google.firebase:firebase-analytics-ktx:19.0.0] /Users/apple/.gradle/caches/transforms-2/files-2.1/4bcb633e23b2302360ea7d152c18ee70/firebase-analytics-ktx-19.0.0/AndroidManifest.xml:8:9-14:19
MERGED from [com.google.firebase:firebase-common-ktx:20.0.0] /Users/apple/.gradle/caches/transforms-2/files-2.1/d7c50ad9b2ee41722f7fbcb340b1c212/firebase-common-ktx-20.0.0/AndroidManifest.xml:12:9-18:19
MERGED from [com.google.firebase:firebase-common-ktx:20.0.0] /Users/apple/.gradle/caches/transforms-2/files-2.1/d7c50ad9b2ee41722f7fbcb340b1c212/firebase-common-ktx-20.0.0/AndroidManifest.xml:12:9-18:19
MERGED from [com.google.firebase:firebase-messaging:22.0.0] /Users/apple/.gradle/caches/transforms-2/files-2.1/023c9c8afbaf30c41adace25eca7bde6/jetified-firebase-messaging-22.0.0/AndroidManifest.xml:49:9-55:19
MERGED from [com.google.firebase:firebase-messaging:22.0.0] /Users/apple/.gradle/caches/transforms-2/files-2.1/023c9c8afbaf30c41adace25eca7bde6/jetified-firebase-messaging-22.0.0/AndroidManifest.xml:49:9-55:19
MERGED from [com.google.firebase:firebase-datatransport:18.0.0] /Users/apple/.gradle/caches/transforms-2/files-2.1/7fde8af00e3fcdab8e20440bbb906c69/firebase-datatransport-18.0.0/AndroidManifest.xml:25:9-31:19
MERGED from [com.google.firebase:firebase-datatransport:18.0.0] /Users/apple/.gradle/caches/transforms-2/files-2.1/7fde8af00e3fcdab8e20440bbb906c69/firebase-datatransport-18.0.0/AndroidManifest.xml:25:9-31:19
MERGED from [com.google.android.gms:play-services-measurement-api:19.0.0] /Users/apple/.gradle/caches/transforms-2/files-2.1/6283c31df1a5ff5b5adf31d5b2c18d0b/play-services-measurement-api-19.0.0/AndroidManifest.xml:27:9-33:19
MERGED from [com.google.android.gms:play-services-measurement-api:19.0.0] /Users/apple/.gradle/caches/transforms-2/files-2.1/6283c31df1a5ff5b5adf31d5b2c18d0b/play-services-measurement-api-19.0.0/AndroidManifest.xml:27:9-33:19
MERGED from [com.google.firebase:firebase-installations:17.0.0] /Users/apple/.gradle/caches/transforms-2/files-2.1/5a84543ef7ffe5ea13f86bfa99578d82/firebase-installations-17.0.0/AndroidManifest.xml:15:9-21:19
MERGED from [com.google.firebase:firebase-installations:17.0.0] /Users/apple/.gradle/caches/transforms-2/files-2.1/5a84543ef7ffe5ea13f86bfa99578d82/firebase-installations-17.0.0/AndroidManifest.xml:15:9-21:19
MERGED from [com.google.firebase:firebase-common:20.0.0] /Users/apple/.gradle/caches/transforms-2/files-2.1/48d27c24c69d71f8a23bd6bf4b8a3170/jetified-firebase-common-20.0.0/AndroidManifest.xml:33:9-37:35
MERGED from [com.google.firebase:firebase-common:20.0.0] /Users/apple/.gradle/caches/transforms-2/files-2.1/48d27c24c69d71f8a23bd6bf4b8a3170/jetified-firebase-common-20.0.0/AndroidManifest.xml:33:9-37:35
	android:exported
		ADDED from [com.google.firebase:firebase-analytics-ktx:19.0.0] /Users/apple/.gradle/caches/transforms-2/files-2.1/4bcb633e23b2302360ea7d152c18ee70/firebase-analytics-ktx-19.0.0/AndroidManifest.xml:10:13-37
	tools:targetApi
		ADDED from [com.google.firebase:firebase-common:20.0.0] /Users/apple/.gradle/caches/transforms-2/files-2.1/48d27c24c69d71f8a23bd6bf4b8a3170/jetified-firebase-common-20.0.0/AndroidManifest.xml:37:13-32
	android:directBootAware
		ADDED from [com.google.firebase:firebase-common:20.0.0] /Users/apple/.gradle/caches/transforms-2/files-2.1/48d27c24c69d71f8a23bd6bf4b8a3170/jetified-firebase-common-20.0.0/AndroidManifest.xml:35:13-43
	android:name
		ADDED from [:firebase_messaging] /Users/apple/Downloads/freelance2/laybull/build/firebase_messaging/intermediates/library_manifest/debug/AndroidManifest.xml:33:18-89
meta-data#com.google.firebase.components:io.flutter.plugins.firebase.messaging.FlutterFirebaseAppRegistrar
ADDED from [:firebase_messaging] /Users/apple/Downloads/freelance2/laybull/build/firebase_messaging/intermediates/library_manifest/debug/AndroidManifest.xml:34:13-36:85
	android:value
		ADDED from [:firebase_messaging] /Users/apple/Downloads/freelance2/laybull/build/firebase_messaging/intermediates/library_manifest/debug/AndroidManifest.xml:36:17-82
	android:name
		ADDED from [:firebase_messaging] /Users/apple/Downloads/freelance2/laybull/build/firebase_messaging/intermediates/library_manifest/debug/AndroidManifest.xml:35:17-128
provider#io.flutter.plugins.firebase.messaging.FlutterFirebaseMessagingInitProvider
ADDED from [:firebase_messaging] /Users/apple/Downloads/freelance2/laybull/build/firebase_messaging/intermediates/library_manifest/debug/AndroidManifest.xml:39:9-43:38
	android:authorities
		ADDED from [:firebase_messaging] /Users/apple/Downloads/freelance2/laybull/build/firebase_messaging/intermediates/library_manifest/debug/AndroidManifest.xml:41:13-88
	android:exported
		ADDED from [:firebase_messaging] /Users/apple/Downloads/freelance2/laybull/build/firebase_messaging/intermediates/library_manifest/debug/AndroidManifest.xml:42:13-37
	android:initOrder
		ADDED from [:firebase_messaging] /Users/apple/Downloads/freelance2/laybull/build/firebase_messaging/intermediates/library_manifest/debug/AndroidManifest.xml:43:13-35
	android:name
		ADDED from [:firebase_messaging] /Users/apple/Downloads/freelance2/laybull/build/firebase_messaging/intermediates/library_manifest/debug/AndroidManifest.xml:40:13-102
activity#io.flutter.plugins.urllauncher.WebViewActivity
ADDED from [:url_launcher] /Users/apple/Downloads/freelance2/laybull/build/url_launcher/intermediates/library_manifest/debug/AndroidManifest.xml:8:9-11:74
	android:exported
		ADDED from [:url_launcher] /Users/apple/Downloads/freelance2/laybull/build/url_launcher/intermediates/library_manifest/debug/AndroidManifest.xml:10:13-37
	android:theme
		ADDED from [:url_launcher] /Users/apple/Downloads/freelance2/laybull/build/url_launcher/intermediates/library_manifest/debug/AndroidManifest.xml:11:13-71
	android:name
		ADDED from [:url_launcher] /Users/apple/Downloads/freelance2/laybull/build/url_launcher/intermediates/library_manifest/debug/AndroidManifest.xml:9:13-74
uses-permission#android.permission.RECEIVE_BOOT_COMPLETED
ADDED from [:flutter_local_notifications] /Users/apple/Downloads/freelance2/laybull/build/flutter_local_notifications/intermediates/library_manifest/debug/AndroidManifest.xml:7:5-81
	android:name
		ADDED from [:flutter_local_notifications] /Users/apple/Downloads/freelance2/laybull/build/flutter_local_notifications/intermediates/library_manifest/debug/AndroidManifest.xml:7:22-78
uses-permission#android.permission.VIBRATE
ADDED from [:flutter_local_notifications] /Users/apple/Downloads/freelance2/laybull/build/flutter_local_notifications/intermediates/library_manifest/debug/AndroidManifest.xml:8:5-66
	android:name
		ADDED from [:flutter_local_notifications] /Users/apple/Downloads/freelance2/laybull/build/flutter_local_notifications/intermediates/library_manifest/debug/AndroidManifest.xml:8:22-63
uses-permission#android.permission.USE_FULL_SCREEN_INTENT
ADDED from [:flutter_local_notifications] /Users/apple/Downloads/freelance2/laybull/build/flutter_local_notifications/intermediates/library_manifest/debug/AndroidManifest.xml:9:5-81
	android:name
		ADDED from [:flutter_local_notifications] /Users/apple/Downloads/freelance2/laybull/build/flutter_local_notifications/intermediates/library_manifest/debug/AndroidManifest.xml:9:22-78
receiver#com.dexterous.flutterlocalnotifications.ScheduledNotificationReceiver
ADDED from [:flutter_local_notifications] /Users/apple/Downloads/freelance2/laybull/build/flutter_local_notifications/intermediates/library_manifest/debug/AndroidManifest.xml:12:9-106
	android:name
		ADDED from [:flutter_local_notifications] /Users/apple/Downloads/freelance2/laybull/build/flutter_local_notifications/intermediates/library_manifest/debug/AndroidManifest.xml:12:19-103
receiver#com.dexterous.flutterlocalnotifications.ScheduledNotificationBootReceiver
ADDED from [:flutter_local_notifications] /Users/apple/Downloads/freelance2/laybull/build/flutter_local_notifications/intermediates/library_manifest/debug/AndroidManifest.xml:13:9-20:20
	android:name
		ADDED from [:flutter_local_notifications] /Users/apple/Downloads/freelance2/laybull/build/flutter_local_notifications/intermediates/library_manifest/debug/AndroidManifest.xml:13:19-107
intent-filter#action:name:android.intent.action.BOOT_COMPLETED+action:name:android.intent.action.MY_PACKAGE_REPLACED+action:name:android.intent.action.QUICKBOOT_POWERON+action:name:com.htc.intent.action.QUICKBOOT_POWERON
ADDED from [:flutter_local_notifications] /Users/apple/Downloads/freelance2/laybull/build/flutter_local_notifications/intermediates/library_manifest/debug/AndroidManifest.xml:14:13-19:29
action#android.intent.action.BOOT_COMPLETED
ADDED from [:flutter_local_notifications] /Users/apple/Downloads/freelance2/laybull/build/flutter_local_notifications/intermediates/library_manifest/debug/AndroidManifest.xml:15:17-79
	android:name
		ADDED from [:flutter_local_notifications] /Users/apple/Downloads/freelance2/laybull/build/flutter_local_notifications/intermediates/library_manifest/debug/AndroidManifest.xml:15:25-76
action#android.intent.action.MY_PACKAGE_REPLACED
ADDED from [:flutter_local_notifications] /Users/apple/Downloads/freelance2/laybull/build/flutter_local_notifications/intermediates/library_manifest/debug/AndroidManifest.xml:16:17-84
	android:name
		ADDED from [:flutter_local_notifications] /Users/apple/Downloads/freelance2/laybull/build/flutter_local_notifications/intermediates/library_manifest/debug/AndroidManifest.xml:16:25-81
action#android.intent.action.QUICKBOOT_POWERON
ADDED from [:flutter_local_notifications] /Users/apple/Downloads/freelance2/laybull/build/flutter_local_notifications/intermediates/library_manifest/debug/AndroidManifest.xml:17:17-82
	android:name
		ADDED from [:flutter_local_notifications] /Users/apple/Downloads/freelance2/laybull/build/flutter_local_notifications/intermediates/library_manifest/debug/AndroidManifest.xml:17:25-79
action#com.htc.intent.action.QUICKBOOT_POWERON
ADDED from [:flutter_local_notifications] /Users/apple/Downloads/freelance2/laybull/build/flutter_local_notifications/intermediates/library_manifest/debug/AndroidManifest.xml:18:17-82
	android:name
		ADDED from [:flutter_local_notifications] /Users/apple/Downloads/freelance2/laybull/build/flutter_local_notifications/intermediates/library_manifest/debug/AndroidManifest.xml:18:25-79
meta-data#com.google.firebase.components:io.flutter.plugins.firebase.core.FlutterFirebaseCoreRegistrar
ADDED from [:firebase_core] /Users/apple/Downloads/freelance2/laybull/build/firebase_core/intermediates/library_manifest/debug/AndroidManifest.xml:9:13-11:85
	android:value
		ADDED from [:firebase_core] /Users/apple/Downloads/freelance2/laybull/build/firebase_core/intermediates/library_manifest/debug/AndroidManifest.xml:11:17-82
	android:name
		ADDED from [:firebase_core] /Users/apple/Downloads/freelance2/laybull/build/firebase_core/intermediates/library_manifest/debug/AndroidManifest.xml:10:17-124
meta-data#com.google.firebase.components:com.google.firebase.analytics.ktx.FirebaseAnalyticsKtxRegistrar
ADDED from [com.google.firebase:firebase-analytics-ktx:19.0.0] /Users/apple/.gradle/caches/transforms-2/files-2.1/4bcb633e23b2302360ea7d152c18ee70/firebase-analytics-ktx-19.0.0/AndroidManifest.xml:11:13-13:85
	android:value
		ADDED from [com.google.firebase:firebase-analytics-ktx:19.0.0] /Users/apple/.gradle/caches/transforms-2/files-2.1/4bcb633e23b2302360ea7d152c18ee70/firebase-analytics-ktx-19.0.0/AndroidManifest.xml:13:17-82
	android:name
		ADDED from [com.google.firebase:firebase-analytics-ktx:19.0.0] /Users/apple/.gradle/caches/transforms-2/files-2.1/4bcb633e23b2302360ea7d152c18ee70/firebase-analytics-ktx-19.0.0/AndroidManifest.xml:12:17-126
meta-data#com.google.firebase.components:com.google.firebase.ktx.FirebaseCommonKtxRegistrar
ADDED from [com.google.firebase:firebase-common-ktx:20.0.0] /Users/apple/.gradle/caches/transforms-2/files-2.1/d7c50ad9b2ee41722f7fbcb340b1c212/firebase-common-ktx-20.0.0/AndroidManifest.xml:15:13-17:85
	android:value
		ADDED from [com.google.firebase:firebase-common-ktx:20.0.0] /Users/apple/.gradle/caches/transforms-2/files-2.1/d7c50ad9b2ee41722f7fbcb340b1c212/firebase-common-ktx-20.0.0/AndroidManifest.xml:17:17-82
	android:name
		ADDED from [com.google.firebase:firebase-common-ktx:20.0.0] /Users/apple/.gradle/caches/transforms-2/files-2.1/d7c50ad9b2ee41722f7fbcb340b1c212/firebase-common-ktx-20.0.0/AndroidManifest.xml:16:17-113
uses-permission#com.google.android.c2dm.permission.RECEIVE
ADDED from [com.google.firebase:firebase-messaging:22.0.0] /Users/apple/.gradle/caches/transforms-2/files-2.1/023c9c8afbaf30c41adace25eca7bde6/jetified-firebase-messaging-22.0.0/AndroidManifest.xml:25:5-82
MERGED from [com.google.android.gms:play-services-cloud-messaging:16.0.0] /Users/apple/.gradle/caches/transforms-2/files-2.1/f4a0d351c388375dfc747d864225d593/play-services-cloud-messaging-16.0.0/AndroidManifest.xml:11:5-82
MERGED from [com.google.android.gms:play-services-cloud-messaging:16.0.0] /Users/apple/.gradle/caches/transforms-2/files-2.1/f4a0d351c388375dfc747d864225d593/play-services-cloud-messaging-16.0.0/AndroidManifest.xml:11:5-82
	android:name
		ADDED from [com.google.firebase:firebase-messaging:22.0.0] /Users/apple/.gradle/caches/transforms-2/files-2.1/023c9c8afbaf30c41adace25eca7bde6/jetified-firebase-messaging-22.0.0/AndroidManifest.xml:25:22-79
receiver#com.google.firebase.iid.FirebaseInstanceIdReceiver
ADDED from [com.google.firebase:firebase-messaging:22.0.0] /Users/apple/.gradle/caches/transforms-2/files-2.1/023c9c8afbaf30c41adace25eca7bde6/jetified-firebase-messaging-22.0.0/AndroidManifest.xml:28:9-35:20
	android:exported
		ADDED from [com.google.firebase:firebase-messaging:22.0.0] /Users/apple/.gradle/caches/transforms-2/files-2.1/023c9c8afbaf30c41adace25eca7bde6/jetified-firebase-messaging-22.0.0/AndroidManifest.xml:30:13-36
	android:permission
		ADDED from [com.google.firebase:firebase-messaging:22.0.0] /Users/apple/.gradle/caches/transforms-2/files-2.1/023c9c8afbaf30c41adace25eca7bde6/jetified-firebase-messaging-22.0.0/AndroidManifest.xml:31:13-73
	android:name
		ADDED from [com.google.firebase:firebase-messaging:22.0.0] /Users/apple/.gradle/caches/transforms-2/files-2.1/023c9c8afbaf30c41adace25eca7bde6/jetified-firebase-messaging-22.0.0/AndroidManifest.xml:29:13-78
service#com.google.firebase.messaging.FirebaseMessagingService
ADDED from [com.google.firebase:firebase-messaging:22.0.0] /Users/apple/.gradle/caches/transforms-2/files-2.1/023c9c8afbaf30c41adace25eca7bde6/jetified-firebase-messaging-22.0.0/AndroidManifest.xml:41:9-48:19
	android:exported
		ADDED from [com.google.firebase:firebase-messaging:22.0.0] /Users/apple/.gradle/caches/transforms-2/files-2.1/023c9c8afbaf30c41adace25eca7bde6/jetified-firebase-messaging-22.0.0/AndroidManifest.xml:44:13-37
	android:directBootAware
		ADDED from [com.google.firebase:firebase-messaging:22.0.0] /Users/apple/.gradle/caches/transforms-2/files-2.1/023c9c8afbaf30c41adace25eca7bde6/jetified-firebase-messaging-22.0.0/AndroidManifest.xml:43:13-43
	android:name
		ADDED from [com.google.firebase:firebase-messaging:22.0.0] /Users/apple/.gradle/caches/transforms-2/files-2.1/023c9c8afbaf30c41adace25eca7bde6/jetified-firebase-messaging-22.0.0/AndroidManifest.xml:42:13-82
meta-data#com.google.firebase.components:com.google.firebase.messaging.FirebaseMessagingRegistrar
ADDED from [com.google.firebase:firebase-messaging:22.0.0] /Users/apple/.gradle/caches/transforms-2/files-2.1/023c9c8afbaf30c41adace25eca7bde6/jetified-firebase-messaging-22.0.0/AndroidManifest.xml:52:13-54:85
	android:value
		ADDED from [com.google.firebase:firebase-messaging:22.0.0] /Users/apple/.gradle/caches/transforms-2/files-2.1/023c9c8afbaf30c41adace25eca7bde6/jetified-firebase-messaging-22.0.0/AndroidManifest.xml:54:17-82
	android:name
		ADDED from [com.google.firebase:firebase-messaging:22.0.0] /Users/apple/.gradle/caches/transforms-2/files-2.1/023c9c8afbaf30c41adace25eca7bde6/jetified-firebase-messaging-22.0.0/AndroidManifest.xml:53:17-119
uses-permission#com.google.android.finsky.permission.BIND_GET_INSTALL_REFERRER_SERVICE
ADDED from [com.google.android.gms:play-services-measurement:19.0.0] /Users/apple/.gradle/caches/transforms-2/files-2.1/ae09a87ceb17057461dab98275b2323f/play-services-measurement-19.0.0/AndroidManifest.xml:26:5-110
MERGED from [com.google.android.gms:play-services-measurement-impl:19.0.0] /Users/apple/.gradle/caches/transforms-2/files-2.1/995175598b3bc8c69ec08cc51a6479de/play-services-measurement-impl-19.0.0/AndroidManifest.xml:26:5-110
MERGED from [com.google.android.gms:play-services-measurement-impl:19.0.0] /Users/apple/.gradle/caches/transforms-2/files-2.1/995175598b3bc8c69ec08cc51a6479de/play-services-measurement-impl-19.0.0/AndroidManifest.xml:26:5-110
	android:name
		ADDED from [com.google.android.gms:play-services-measurement:19.0.0] /Users/apple/.gradle/caches/transforms-2/files-2.1/ae09a87ceb17057461dab98275b2323f/play-services-measurement-19.0.0/AndroidManifest.xml:26:22-107
receiver#com.google.android.gms.measurement.AppMeasurementReceiver
ADDED from [com.google.android.gms:play-services-measurement:19.0.0] /Users/apple/.gradle/caches/transforms-2/files-2.1/ae09a87ceb17057461dab98275b2323f/play-services-measurement-19.0.0/AndroidManifest.xml:29:9-33:20
	android:enabled
		ADDED from [com.google.android.gms:play-services-measurement:19.0.0] /Users/apple/.gradle/caches/transforms-2/files-2.1/ae09a87ceb17057461dab98275b2323f/play-services-measurement-19.0.0/AndroidManifest.xml:31:13-35
	android:exported
		ADDED from [com.google.android.gms:play-services-measurement:19.0.0] /Users/apple/.gradle/caches/transforms-2/files-2.1/ae09a87ceb17057461dab98275b2323f/play-services-measurement-19.0.0/AndroidManifest.xml:32:13-37
	android:name
		ADDED from [com.google.android.gms:play-services-measurement:19.0.0] /Users/apple/.gradle/caches/transforms-2/files-2.1/ae09a87ceb17057461dab98275b2323f/play-services-measurement-19.0.0/AndroidManifest.xml:30:13-85
service#com.google.android.gms.measurement.AppMeasurementService
ADDED from [com.google.android.gms:play-services-measurement:19.0.0] /Users/apple/.gradle/caches/transforms-2/files-2.1/ae09a87ceb17057461dab98275b2323f/play-services-measurement-19.0.0/AndroidManifest.xml:35:9-38:40
	android:enabled
		ADDED from [com.google.android.gms:play-services-measurement:19.0.0] /Users/apple/.gradle/caches/transforms-2/files-2.1/ae09a87ceb17057461dab98275b2323f/play-services-measurement-19.0.0/AndroidManifest.xml:37:13-35
	android:exported
		ADDED from [com.google.android.gms:play-services-measurement:19.0.0] /Users/apple/.gradle/caches/transforms-2/files-2.1/ae09a87ceb17057461dab98275b2323f/play-services-measurement-19.0.0/AndroidManifest.xml:38:13-37
	android:name
		ADDED from [com.google.android.gms:play-services-measurement:19.0.0] /Users/apple/.gradle/caches/transforms-2/files-2.1/ae09a87ceb17057461dab98275b2323f/play-services-measurement-19.0.0/AndroidManifest.xml:36:13-84
service#com.google.android.gms.measurement.AppMeasurementJobService
ADDED from [com.google.android.gms:play-services-measurement:19.0.0] /Users/apple/.gradle/caches/transforms-2/files-2.1/ae09a87ceb17057461dab98275b2323f/play-services-measurement-19.0.0/AndroidManifest.xml:39:9-43:72
	android:enabled
		ADDED from [com.google.android.gms:play-services-measurement:19.0.0] /Users/apple/.gradle/caches/transforms-2/files-2.1/ae09a87ceb17057461dab98275b2323f/play-services-measurement-19.0.0/AndroidManifest.xml:41:13-35
	android:exported
		ADDED from [com.google.android.gms:play-services-measurement:19.0.0] /Users/apple/.gradle/caches/transforms-2/files-2.1/ae09a87ceb17057461dab98275b2323f/play-services-measurement-19.0.0/AndroidManifest.xml:42:13-37
	android:permission
		ADDED from [com.google.android.gms:play-services-measurement:19.0.0] /Users/apple/.gradle/caches/transforms-2/files-2.1/ae09a87ceb17057461dab98275b2323f/play-services-measurement-19.0.0/AndroidManifest.xml:43:13-69
	android:name
		ADDED from [com.google.android.gms:play-services-measurement:19.0.0] /Users/apple/.gradle/caches/transforms-2/files-2.1/ae09a87ceb17057461dab98275b2323f/play-services-measurement-19.0.0/AndroidManifest.xml:40:13-87
meta-data#com.google.firebase.components:com.google.firebase.datatransport.TransportRegistrar
ADDED from [com.google.firebase:firebase-datatransport:18.0.0] /Users/apple/.gradle/caches/transforms-2/files-2.1/7fde8af00e3fcdab8e20440bbb906c69/firebase-datatransport-18.0.0/AndroidManifest.xml:28:13-30:85
	android:value
		ADDED from [com.google.firebase:firebase-datatransport:18.0.0] /Users/apple/.gradle/caches/transforms-2/files-2.1/7fde8af00e3fcdab8e20440bbb906c69/firebase-datatransport-18.0.0/AndroidManifest.xml:30:17-82
	android:name
		ADDED from [com.google.firebase:firebase-datatransport:18.0.0] /Users/apple/.gradle/caches/transforms-2/files-2.1/7fde8af00e3fcdab8e20440bbb906c69/firebase-datatransport-18.0.0/AndroidManifest.xml:29:17-115
meta-data#com.google.firebase.components:com.google.firebase.analytics.connector.internal.AnalyticsConnectorRegistrar
ADDED from [com.google.android.gms:play-services-measurement-api:19.0.0] /Users/apple/.gradle/caches/transforms-2/files-2.1/6283c31df1a5ff5b5adf31d5b2c18d0b/play-services-measurement-api-19.0.0/AndroidManifest.xml:30:13-32:85
	android:value
		ADDED from [com.google.android.gms:play-services-measurement-api:19.0.0] /Users/apple/.gradle/caches/transforms-2/files-2.1/6283c31df1a5ff5b5adf31d5b2c18d0b/play-services-measurement-api-19.0.0/AndroidManifest.xml:32:17-82
	android:name
		ADDED from [com.google.android.gms:play-services-measurement-api:19.0.0] /Users/apple/.gradle/caches/transforms-2/files-2.1/6283c31df1a5ff5b5adf31d5b2c18d0b/play-services-measurement-api-19.0.0/AndroidManifest.xml:31:17-139
meta-data#com.google.firebase.components:com.google.firebase.installations.FirebaseInstallationsRegistrar
ADDED from [com.google.firebase:firebase-installations:17.0.0] /Users/apple/.gradle/caches/transforms-2/files-2.1/5a84543ef7ffe5ea13f86bfa99578d82/firebase-installations-17.0.0/AndroidManifest.xml:18:13-20:85
	android:value
		ADDED from [com.google.firebase:firebase-installations:17.0.0] /Users/apple/.gradle/caches/transforms-2/files-2.1/5a84543ef7ffe5ea13f86bfa99578d82/firebase-installations-17.0.0/AndroidManifest.xml:20:17-82
	android:name
		ADDED from [com.google.firebase:firebase-installations:17.0.0] /Users/apple/.gradle/caches/transforms-2/files-2.1/5a84543ef7ffe5ea13f86bfa99578d82/firebase-installations-17.0.0/AndroidManifest.xml:19:17-127
provider#com.google.firebase.provider.FirebaseInitProvider
ADDED from [com.google.firebase:firebase-common:20.0.0] /Users/apple/.gradle/caches/transforms-2/files-2.1/48d27c24c69d71f8a23bd6bf4b8a3170/jetified-firebase-common-20.0.0/AndroidManifest.xml:26:9-31:39
	android:authorities
		ADDED from [com.google.firebase:firebase-common:20.0.0] /Users/apple/.gradle/caches/transforms-2/files-2.1/48d27c24c69d71f8a23bd6bf4b8a3170/jetified-firebase-common-20.0.0/AndroidManifest.xml:28:13-72
	android:exported
		ADDED from [com.google.firebase:firebase-common:20.0.0] /Users/apple/.gradle/caches/transforms-2/files-2.1/48d27c24c69d71f8a23bd6bf4b8a3170/jetified-firebase-common-20.0.0/AndroidManifest.xml:30:13-37
	android:directBootAware
		ADDED from [com.google.firebase:firebase-common:20.0.0] /Users/apple/.gradle/caches/transforms-2/files-2.1/48d27c24c69d71f8a23bd6bf4b8a3170/jetified-firebase-common-20.0.0/AndroidManifest.xml:29:13-43
	android:initOrder
		ADDED from [com.google.firebase:firebase-common:20.0.0] /Users/apple/.gradle/caches/transforms-2/files-2.1/48d27c24c69d71f8a23bd6bf4b8a3170/jetified-firebase-common-20.0.0/AndroidManifest.xml:31:13-36
	android:name
		ADDED from [com.google.firebase:firebase-common:20.0.0] /Users/apple/.gradle/caches/transforms-2/files-2.1/48d27c24c69d71f8a23bd6bf4b8a3170/jetified-firebase-common-20.0.0/AndroidManifest.xml:27:13-77
meta-data#com.google.android.gms.version
ADDED from [com.google.android.gms:play-services-basement:17.0.0] /Users/apple/.gradle/caches/transforms-2/files-2.1/c2c4012586a32b1624464106a1ba071a/jetified-play-services-basement-17.0.0/AndroidManifest.xml:23:9-25:69
	android:value
		ADDED from [com.google.android.gms:play-services-basement:17.0.0] /Users/apple/.gradle/caches/transforms-2/files-2.1/c2c4012586a32b1624464106a1ba071a/jetified-play-services-basement-17.0.0/AndroidManifest.xml:25:13-66
	android:name
		ADDED from [com.google.android.gms:play-services-basement:17.0.0] /Users/apple/.gradle/caches/transforms-2/files-2.1/c2c4012586a32b1624464106a1ba071a/jetified-play-services-basement-17.0.0/AndroidManifest.xml:24:13-58
service#com.google.android.datatransport.runtime.backends.TransportBackendDiscovery
ADDED from [com.google.android.datatransport:transport-backend-cct:3.0.0] /Users/apple/.gradle/caches/transforms-2/files-2.1/bf67f8fa37479c4168b99c112dd28cc2/jetified-transport-backend-cct-3.0.0/AndroidManifest.xml:29:9-35:19
MERGED from [com.google.android.datatransport:transport-runtime:3.0.0] /Users/apple/.gradle/caches/transforms-2/files-2.1/d47444b005bf9c7751eb4a19f21ee215/jetified-transport-runtime-3.0.0/AndroidManifest.xml:36:9-38:40
MERGED from [com.google.android.datatransport:transport-runtime:3.0.0] /Users/apple/.gradle/caches/transforms-2/files-2.1/d47444b005bf9c7751eb4a19f21ee215/jetified-transport-runtime-3.0.0/AndroidManifest.xml:36:9-38:40
	android:exported
		ADDED from [com.google.android.datatransport:transport-backend-cct:3.0.0] /Users/apple/.gradle/caches/transforms-2/files-2.1/bf67f8fa37479c4168b99c112dd28cc2/jetified-transport-backend-cct-3.0.0/AndroidManifest.xml:31:13-37
	android:name
		ADDED from [com.google.android.datatransport:transport-backend-cct:3.0.0] /Users/apple/.gradle/caches/transforms-2/files-2.1/bf67f8fa37479c4168b99c112dd28cc2/jetified-transport-backend-cct-3.0.0/AndroidManifest.xml:30:13-103
meta-data#backend:com.google.android.datatransport.cct.CctBackendFactory
ADDED from [com.google.android.datatransport:transport-backend-cct:3.0.0] /Users/apple/.gradle/caches/transforms-2/files-2.1/bf67f8fa37479c4168b99c112dd28cc2/jetified-transport-backend-cct-3.0.0/AndroidManifest.xml:32:13-34:39
	android:value
		ADDED from [com.google.android.datatransport:transport-backend-cct:3.0.0] /Users/apple/.gradle/caches/transforms-2/files-2.1/bf67f8fa37479c4168b99c112dd28cc2/jetified-transport-backend-cct-3.0.0/AndroidManifest.xml:34:17-36
	android:name
		ADDED from [com.google.android.datatransport:transport-backend-cct:3.0.0] /Users/apple/.gradle/caches/transforms-2/files-2.1/bf67f8fa37479c4168b99c112dd28cc2/jetified-transport-backend-cct-3.0.0/AndroidManifest.xml:33:17-94
service#com.google.android.datatransport.runtime.scheduling.jobscheduling.JobInfoSchedulerService
ADDED from [com.google.android.datatransport:transport-runtime:3.0.0] /Users/apple/.gradle/caches/transforms-2/files-2.1/d47444b005bf9c7751eb4a19f21ee215/jetified-transport-runtime-3.0.0/AndroidManifest.xml:26:9-30:19
	android:exported
		ADDED from [com.google.android.datatransport:transport-runtime:3.0.0] /Users/apple/.gradle/caches/transforms-2/files-2.1/d47444b005bf9c7751eb4a19f21ee215/jetified-transport-runtime-3.0.0/AndroidManifest.xml:28:13-37
	android:permission
		ADDED from [com.google.android.datatransport:transport-runtime:3.0.0] /Users/apple/.gradle/caches/transforms-2/files-2.1/d47444b005bf9c7751eb4a19f21ee215/jetified-transport-runtime-3.0.0/AndroidManifest.xml:29:13-69
	android:name
		ADDED from [com.google.android.datatransport:transport-runtime:3.0.0] /Users/apple/.gradle/caches/transforms-2/files-2.1/d47444b005bf9c7751eb4a19f21ee215/jetified-transport-runtime-3.0.0/AndroidManifest.xml:27:13-117
receiver#com.google.android.datatransport.runtime.scheduling.jobscheduling.AlarmManagerSchedulerBroadcastReceiver
ADDED from [com.google.android.datatransport:transport-runtime:3.0.0] /Users/apple/.gradle/caches/transforms-2/files-2.1/d47444b005bf9c7751eb4a19f21ee215/jetified-transport-runtime-3.0.0/AndroidManifest.xml:32:9-34:40
	android:exported
		ADDED from [com.google.android.datatransport:transport-runtime:3.0.0] /Users/apple/.gradle/caches/transforms-2/files-2.1/d47444b005bf9c7751eb4a19f21ee215/jetified-transport-runtime-3.0.0/AndroidManifest.xml:34:13-37
	android:name
		ADDED from [com.google.android.datatransport:transport-runtime:3.0.0] /Users/apple/.gradle/caches/transforms-2/files-2.1/d47444b005bf9c7751eb4a19f21ee215/jetified-transport-runtime-3.0.0/AndroidManifest.xml:33:13-132
