{
  "project_info": {
    "project_number": "992578334731",
    "project_id": "laybull-fe584",
    "storage_bucket": "laybull-fe584.appspot.com"
  },
  "client": [
    {
      "client_info": {
        "mobilesdk_app_id": "1:992578334731:android:cf728a824dc7d48a37570e",
        "android_client_info": {
          "package_name": "com.LaybullEcommerce.Laybull"
        }
      },
      "oauth_client": [
        {
          "client_id": "992578334731-ivs4sf7gi6hd9rptl363tlhn7jplp5jc.apps.googleusercontent.com",
          "client_type": 3
        }
      ],
      "api_key": [
        {
          "current_key": "AIzaSyDN3KBt56vNXLJMdGYQ75wyaaJtJj3HiYw"
        }
      ],
      "services": {
        "appinvite_service": {
          "other_platform_oauth_client": [
            {
              "client_id": "992578334731-ivs4sf7gi6hd9rptl363tlhn7jplp5jc.apps.googleusercontent.com",
              "client_type": 3
            }
          ]
        }
      }
    }
  ],
  "configuration_version": "1"
}